<?xml version="1.0" encoding="UTF-8" standalone="no"?>
<!-- Created with Inkscape (http://www.inkscape.org/) -->

<svg
   xmlns:dc="http://purl.org/dc/elements/1.1/"
   xmlns:cc="http://creativecommons.org/ns#"
   xmlns:rdf="http://www.w3.org/1999/02/22-rdf-syntax-ns#"
   xmlns:svg="http://www.w3.org/2000/svg"
   xmlns="http://www.w3.org/2000/svg"
   xmlns:sodipodi="http://sodipodi.sourceforge.net/DTD/sodipodi-0.dtd"
   xmlns:inkscape="http://www.inkscape.org/namespaces/inkscape"
   width="110.55971"
   height="102"
   id="svg2"
   version="1.1"
   inkscape:version="0.48.5 r10040"
   sodipodi:docname="ic_citation.svg">
  <defs
     id="defs4" />
  <sodipodi:namedview
     id="base"
     pagecolor="#ff8bff"
     bordercolor="#666666"
     borderopacity="1.0"
     inkscape:pageopacity="0"
     inkscape:pageshadow="2"
     inkscape:zoom="1.4"
     inkscape:cx="-35.046337"
     inkscape:cy="172.35757"
     inkscape:document-units="px"
     inkscape:current-layer="g2996"
     showgrid="false"
     fit-margin-top="1"
     fit-margin-left="1"
     fit-margin-right="1"
     fit-margin-bottom="1"
     inkscape:window-width="1920"
     inkscape:window-height="1018"
     inkscape:window-x="-8"
     inkscape:window-y="-8"
     inkscape:window-maximized="1" />
  <metadata
     id="metadata7">
    <rdf:RDF>
      <cc:Work
         rdf:about="">
        <dc:format>image/svg+xml</dc:format>
        <dc:type
           rdf:resource="http://purl.org/dc/dcmitype/StillImage" />
        <dc:title />
      </cc:Work>
    </rdf:RDF>
  </metadata>
  <g
     inkscape:label="Calque 1"
     inkscape:groupmode="layer"
     id="layer1"
     transform="translate(-132.3465,-579.13207)">
    <g
       id="g2996"
       transform="translate(620.23367,71.720826)">
      <path
         style="fill:#ffffff;fill-opacity:1"
         d="m -386.15841,606.96085 c -10.71179,-2.56362 -21.2985,-6.09904 -26.17909,-8.74248 l -2.1998,-1.19146 -3.80537,0.77157 c -24.26446,4.91984 -47.654,-2.66614 -60.28586,-19.55263 -3.02573,-4.04485 -5.93434,-9.93553 -7.22362,-14.62971 -1.37382,-5.00198 -1.38123,-14.79326 -0.0149,-19.79036 4.69103,-17.15744 19.87614,-30.04182 40.79711,-34.61584 2.8863,-0.63105 5.46391,-0.79673 12.42499,-0.79867 7.64544,-0.002 9.36593,0.12737 13.28189,0.9997 11.24167,2.50423 20.33671,7.22675 27.83042,14.45071 8.64586,8.33463 12.70566,17.04816 13.16168,28.24884 0.37567,9.22688 -1.66664,16.56425 -6.7315,24.18414 l -2.43607,3.66498 0.34444,3.12288 c 0.65221,5.9134 3.70242,15.29688 7.30241,22.46467 0.67715,1.34825 1.23118,2.55326 1.23118,2.6778 0,0.42445 -1.49662,0.17211 -7.49784,-1.26414 z m -61.12562,-35.58876 c 2.19763,-1.02992 3.94442,-2.2782 5.81354,-4.15443 4.94376,-4.96259 6.23574,-9.26083 6.24734,-20.78407 l 0.007,-7.39073 -10.28275,0 -10.28276,0 0,9.64008 0,9.64008 4.22696,0 4.22695,0 -0.30001,1.60668 c -0.65507,3.50824 -4.10038,7.85913 -6.74995,8.52413 -1.18479,0.29737 -1.18219,0.15528 -0.0508,2.78528 0.91082,2.11725 0.9478,2.14543 2.46358,1.8774 0.84638,-0.14966 2.95259,-0.93465 4.68045,-1.74442 z m 28.62091,-0.2056 c 2.5909,-1.2609 4.09159,-2.35127 5.84968,-4.25021 4.6518,-5.02451 5.85653,-9.22981 5.86786,-20.48269 l 0.007,-7.39073 -10.28276,0 -10.28275,0 0,9.64008 0,9.64008 4.27377,0 4.27377,0 -0.2616,1.39246 c -0.65491,3.48603 -2.75768,6.41148 -5.95554,8.28555 l -1.83655,1.07629 0.89557,2.15498 c 0.88199,2.1223 0.91885,2.15101 2.43088,1.89259 0.84441,-0.14431 3.10352,-1.02559 5.02023,-1.9584 z"
         id="path2998"
         inkscape:connector-curvature="0"
         sodipodi:nodetypes="cscsssssssssscssscccsscccccccsssscccsscccccccsscsscc" />
    </g>
  </g>
</svg>
