<?xml version="1.0" encoding="UTF-8" standalone="no"?>
<!-- Created with Inkscape (http://www.inkscape.org/) -->

<svg
   xmlns:dc="http://purl.org/dc/elements/1.1/"
   xmlns:cc="http://creativecommons.org/ns#"
   xmlns:rdf="http://www.w3.org/1999/02/22-rdf-syntax-ns#"
   xmlns:svg="http://www.w3.org/2000/svg"
   xmlns="http://www.w3.org/2000/svg"
   xmlns:sodipodi="http://sodipodi.sourceforge.net/DTD/sodipodi-0.dtd"
   xmlns:inkscape="http://www.inkscape.org/namespaces/inkscape"
   id="svg2"
   version="1.1"
   inkscape:version="0.48.5 r10040"
   width="316.88416"
   height="316.89938"
   sodipodi:docname="ic_audio_player.svg">
  <metadata
     id="metadata8">
    <rdf:RDF>
      <cc:Work
         rdf:about="">
        <dc:format>image/svg+xml</dc:format>
        <dc:type
           rdf:resource="http://purl.org/dc/dcmitype/StillImage" />
        <dc:title />
      </cc:Work>
    </rdf:RDF>
  </metadata>
  <defs
     id="defs6" />
  <sodipodi:namedview
     pagecolor="#ff79ff"
     bordercolor="#666666"
     borderopacity="1"
     objecttolerance="10"
     gridtolerance="10"
     guidetolerance="10"
     inkscape:pageopacity="0"
     inkscape:pageshadow="2"
     inkscape:window-width="1920"
     inkscape:window-height="1018"
     id="namedview4"
     showgrid="false"
     fit-margin-top="0"
     fit-margin-left="0"
     fit-margin-right="0"
     fit-margin-bottom="0"
     inkscape:zoom="2.36"
     inkscape:cx="77.90066"
     inkscape:cy="169.09192"
     inkscape:window-x="-8"
     inkscape:window-y="-8"
     inkscape:window-maximized="1"
     inkscape:current-layer="layer1" />
  <g
     inkscape:groupmode="layer"
     id="layer1"
     inkscape:label="Calque"
     style="display:inline">
    <g
       id="g3974"
       transform="matrix(1,0,0,1.0134423,-3.6328125e-7,-2.1299283)">
      <g
         transform="translate(13.999998,3.0967126)"
         id="g3959">
        <g
           id="g3898">
          <g
             id="g3891">
            <path
               inkscape:connector-curvature="0"
               id="path3812"
               style="fill:none;stroke:#ffffff;stroke-width:3;stroke-linecap:round;stroke-linejoin:round;stroke-miterlimit:4;stroke-opacity:1;stroke-dasharray:none"
               d="m 259.11681,157.85096 -52.13415,122.84482 z m -25.76745,-17.97729 16.7788,9.88751 -54.53112,128.23801 -15.28069,-5.99243 c -2.81152,-0.75771 -2.02189,-5.80096 -0.89887,-8.68902 z m 9.58788,129.13688 c 44.38023,-35.80632 42.05821,-103.90985 21.87238,-131.23423 13.04205,-17.16113 2.48584,-3.13166 12.88372,-17.37805 31.95299,67.05235 1.85812,127.38488 -10.78637,148.9119 -8.8062,4.09044 -20.22809,2.22784 -23.96973,-0.29962 z m -9.58788,-129.13688 16.7788,9.88751 8.98865,8.08978 c 34.99192,47.60491 7.09712,118.58851 -52.13415,122.84482 l -11.38562,-2.69659 -15.28069,-5.99243 c -2.81152,-0.75771 -2.02189,-5.80096 -0.89887,-8.68902 z m 31.46026,-2.09735 C 243.4196,84.956166 196.78093,60.9992 141.94208,58.668672 l 0,-28.464044 c 57.56257,-2.966484 106.24383,28.25198 135.45164,77.010302 l 0.29962,13.18334 c 0,0 -0.0468,0.32503 -12.88372,17.37805 z m -21.87238,131.23423 c 44.38023,-35.80632 42.05821,-103.90985 21.87238,-131.23423 13.04205,-17.16113 2.48584,-3.13166 12.88372,-17.37805 31.95299,67.05235 1.85812,127.38488 -10.78637,148.9119 -8.8062,4.09044 -20.22809,2.22784 -23.96973,-0.29962 z"
               sodipodi:nodetypes="ccccccccccccccccccccccccccccccccc" />
            <path
               style="fill:#ffffff;fill-opacity:1;stroke:none"
               d="m 187.76182,274.20042 c -4.10546,-1.61925 -7.72294,-3.20255 -8.03883,-3.51845 -0.7589,-0.7589 -0.75479,-3.76612 0.008,-6.04798 0.41595,-1.24388 53.54311,-123.21265 53.87704,-123.69035 0.0371,-0.0531 3.57035,1.96749 7.85168,4.49012 6.94192,4.09028 7.75907,4.65188 7.55165,5.19003 -0.12792,0.3319 -12.13191,28.58062 -26.67553,62.77492 -14.54362,34.19431 -26.59299,62.52569 -26.77637,62.95863 l -0.33343,0.78716 -7.46447,-2.94408 0,0 z"
               id="path3823"
               inkscape:connector-curvature="0" />
            <path
               style="fill:#ffffff;fill-opacity:1;stroke:none"
               d="m 208.20778,279.41487 c 0.15954,-0.30187 11.64314,-27.31255 25.51909,-60.02373 13.87596,-32.71118 25.33241,-59.58394 25.45878,-59.71726 0.30618,-0.323 3.61811,4.81821 5.7643,8.9481 5.93755,11.42554 8.73361,22.92019 8.74188,35.9379 0.004,6.67425 -0.2734,9.61795 -1.49676,15.87 -3.12179,15.95405 -11.41434,30.91741 -22.99335,41.48997 -11.05434,10.0935 -24.47752,16.15275 -39.53754,17.84735 -1.62876,0.18327 -1.72693,0.15952 -1.4564,-0.35233 l 0,0 z"
               id="path3825"
               inkscape:connector-curvature="0" />
          </g>
        </g>
        <g
           id="g3891-2"
           transform="matrix(-1,0,0,1,288.88416,0)">
          <path
             sodipodi:nodetypes="ccccccccccccccccccccccccccccccccc"
             d="m 259.11681,157.85096 -52.13415,122.84482 z m -25.76745,-17.97729 16.7788,9.88751 -54.53112,128.23801 -15.28069,-5.99243 c -2.81152,-0.75771 -2.02189,-5.80096 -0.89887,-8.68902 z m 9.58788,129.13688 c 44.38023,-35.80632 42.05821,-103.90985 21.87238,-131.23423 13.04205,-17.16113 2.48584,-3.13166 12.88372,-17.37805 31.95299,67.05235 1.85812,127.38488 -10.78637,148.9119 -8.8062,4.09044 -20.22809,2.22784 -23.96973,-0.29962 z m -9.58788,-129.13688 16.7788,9.88751 8.98865,8.08978 c 34.99192,47.60491 7.09712,118.58851 -52.13415,122.84482 l -11.38562,-2.69659 -15.28069,-5.99243 c -2.81152,-0.75771 -2.02189,-5.80096 -0.89887,-8.68902 z m 31.46026,-2.09735 C 243.4196,84.956166 196.11991,59.728014 145.94208,58.668672 l 0,-28.464044 c 55.44393,-3.82e-4 102.24383,28.25198 131.45164,77.010302 l 0.29962,13.18334 c 0,0 -0.0468,0.32503 -12.88372,17.37805 z m -21.87238,131.23423 c 44.38023,-35.80632 42.05821,-103.90985 21.87238,-131.23423 13.04205,-17.16113 2.48584,-3.13166 12.88372,-17.37805 31.95299,67.05235 1.85812,127.38488 -10.78637,148.9119 -8.8062,4.09044 -20.22809,2.22784 -23.96973,-0.29962 z"
             style="fill:none;stroke:#ffffff;stroke-width:3;stroke-linecap:round;stroke-linejoin:round;stroke-miterlimit:4;stroke-opacity:1;stroke-dasharray:none"
             id="path3812-4"
             inkscape:connector-curvature="0" />
          <path
             inkscape:connector-curvature="0"
             id="path3823-5"
             d="m 187.76182,274.20042 c -4.10546,-1.61925 -7.72294,-3.20255 -8.03883,-3.51845 -0.7589,-0.7589 -0.75479,-3.76612 0.008,-6.04798 0.41595,-1.24388 53.54311,-123.21265 53.87704,-123.69035 0.0371,-0.0531 3.57035,1.96749 7.85168,4.49012 6.94192,4.09028 7.75907,4.65188 7.55165,5.19003 -0.12792,0.3319 -12.13191,28.58062 -26.67553,62.77492 -14.54362,34.19431 -26.59299,62.52569 -26.77637,62.95863 l -0.33343,0.78716 -7.46447,-2.94408 0,0 z"
             style="fill:#ffffff;fill-opacity:1;stroke:none" />
          <path
             inkscape:connector-curvature="0"
             id="path3825-5"
             d="m 208.20778,279.41487 c 0.15954,-0.30187 11.64314,-27.31255 25.51909,-60.02373 13.87596,-32.71118 25.33241,-59.58394 25.45878,-59.71726 0.30618,-0.323 3.61811,4.81821 5.7643,8.9481 5.93755,11.42554 8.73361,22.92019 8.74188,35.9379 0.004,6.67425 -0.2734,9.61795 -1.49676,15.87 -3.12179,15.95405 -11.41434,30.91741 -22.99335,41.48997 -11.05434,10.0935 -24.47752,16.15275 -39.53754,17.84735 -1.62876,0.18327 -1.72693,0.15952 -1.4564,-0.35233 l 0,0 z"
             style="fill:#ffffff;fill-opacity:1;stroke:none" />
        </g>
      </g>
      <path
         inkscape:connector-curvature="0"
         id="path3970"
         d="m 32.276662,130.25683 -5.180826,-6.9313 0,-6.19004 0,-6.19005 2.648305,-4.15326 C 54.020028,68.720941 89.63598,44.294147 131.19584,37.212682 c 5.49341,-0.936031 17.1844,-2.143192 20.75619,-2.143192 l 2.26245,0 0,12.45058 0,12.45058 -0.95339,0.255498 c -0.52436,0.140525 -1.99443,0.258103 -3.26681,0.261285 -3.54339,0.0089 -12.68063,1.20679 -19.50861,2.557656 -38.321711,7.581665 -69.2744,30.024515 -87.354335,63.337961 -1.517781,2.79661 -3.310296,6.37182 -3.983366,7.94491 -0.67307,1.5731 -1.328775,2.86017 -1.457122,2.86017 -0.128348,0 -2.564731,-3.11908 -5.414185,-6.9313 z"
         style="fill:#ffffff;fill-opacity:1;stroke:#ffffff;stroke-width:1.27118647;stroke-linecap:round;stroke-linejoin:round;stroke-miterlimit:4;stroke-opacity:1;stroke-dasharray:none" />
      <path
         inkscape:connector-curvature="0"
         id="path3972"
         d="M 277.5014,133.90424 C 272.05541,121.50625 263.5214,109.19441 253.17016,98.802049 243.45764,89.050948 234.61204,82.632151 222.27989,76.38655 209.3619,69.844251 196.60684,65.653245 181.12126,62.862813 175.47461,61.845312 165.34154,60.611369 160.78228,60.386055 l -2.11865,-0.104701 -0.11219,-12.574622 -0.11219,-12.574621 3.71389,-0.142786 c 4.83998,-0.18608 13.89856,0.33806 20.02744,1.158812 41.87796,5.608105 79.14635,30.651842 104.8179,70.435903 l 2.80922,4.35353 0,6.19398 0,6.19398 -5.18083,6.9313 c -2.84945,3.81222 -5.2938,6.9313 -5.43189,6.9313 -0.13809,0 -0.9002,-1.47775 -1.69358,-3.28389 l 0,0 z"
         style="fill:#ffffff;fill-opacity:1;stroke:#ffffff;stroke-width:1.27118647;stroke-linecap:round;stroke-linejoin:round;stroke-miterlimit:4;stroke-opacity:1;stroke-dasharray:none" />
    </g>
  </g>
  <g
     inkscape:groupmode="layer"
     id="layer2"
     inkscape:label="Calque#1" />
</svg>
