<?xml version="1.0" encoding="UTF-8" standalone="no"?>
<!-- Created with Inkscape (http://www.inkscape.org/) -->

<svg
   xmlns:dc="http://purl.org/dc/elements/1.1/"
   xmlns:cc="http://creativecommons.org/ns#"
   xmlns:rdf="http://www.w3.org/1999/02/22-rdf-syntax-ns#"
   xmlns:svg="http://www.w3.org/2000/svg"
   xmlns="http://www.w3.org/2000/svg"
   xmlns:sodipodi="http://sodipodi.sourceforge.net/DTD/sodipodi-0.dtd"
   xmlns:inkscape="http://www.inkscape.org/namespaces/inkscape"
   width="310"
   height="275"
   id="svg2"
   version="1.1"
   inkscape:version="0.92.2 (5c3e80d, 2017-08-06)"
   sodipodi:docname="ic_bible_reading_plan.svg"
   inkscape:export-filename="F:\git\AdoreDieu\originaux\bible.png"
   inkscape:export-xdpi="90"
   inkscape:export-ydpi="90">
  <defs
     id="defs4" />
  <sodipodi:namedview
     id="base"
     pagecolor="#ff85ff"
     bordercolor="#666666"
     borderopacity="1.0"
     inkscape:pageopacity="0"
     inkscape:pageshadow="2"
     inkscape:zoom="2.8284271"
     inkscape:cx="172.80413"
     inkscape:cy="161.823"
     inkscape:document-units="px"
     inkscape:current-layer="layer2"
     showgrid="true"
     inkscape:window-width="1220"
     inkscape:window-height="978"
     inkscape:window-x="2131"
     inkscape:window-y="0"
     inkscape:window-maximized="0"
     fit-margin-top="0"
     fit-margin-left="0"
     fit-margin-right="0"
     fit-margin-bottom="0"
     showguides="true"
     inkscape:guide-bbox="true"
     inkscape:snap-global="false">
    <inkscape:grid
       type="xygrid"
       id="grid2999"
       empspacing="5"
       visible="true"
       enabled="true"
       snapvisiblegridlinesonly="true"
       originx="485"
       originy="-460"
       spacingx="1"
       spacingy="1" />
  </sodipodi:namedview>
  <metadata
     id="metadata7">
    <rdf:RDF>
      <cc:Work
         rdf:about="">
        <dc:format>image/svg+xml</dc:format>
        <dc:type
           rdf:resource="http://purl.org/dc/dcmitype/StillImage" />
        <dc:title />
      </cc:Work>
    </rdf:RDF>
  </metadata>
  <g
     inkscape:groupmode="layer"
     id="layer2"
     inkscape:label="Bible"
     transform="translate(485,-317.36215)">
    <g
       id="g2994"
       transform="translate(131,59)"
       style="fill:#ffffff;fill-opacity:1;stroke:none" />
    <path
       style="fill:#ffffff;fill-opacity:1;stroke:none"
       d=""
       id="path2992"
       inkscape:connector-curvature="0" />
    <g
       id="g2986"
       transform="translate(137.5,39)"
       style="fill:#ffffff;fill-opacity:1;stroke:none" />
    <path
       style="fill:#ffffff;fill-opacity:1;stroke:none"
       d=""
       id="path2984"
       inkscape:connector-curvature="0" />
    <path
       style="fill:#ffffff;fill-opacity:1;stroke:none"
       d="M 25 0 L 25 195 C 79.98721 201.41495 111.61064 228.73434 150 250 L 150 190.75 C 148.82032 190.74634 139.6832 190.74823 139.64453 190.74414 L 139.64258 190.74414 C 136.10235 190.36241 132.35901 188.98018 129.20312 186.88867 C 127.44606 185.7242 124.30849 182.58377 123.15234 180.83203 C 121.4042 178.18355 120.21225 175.29868 119.58008 172.18945 C 119.31237 170.86952 119.30078 167.87403 119.30078 99.035156 C 119.30078 64.909046 119.30432 47.246793 119.33984 37.666016 C 93.718056 20.499547 64.692453 6.0273037 25 0 z M 0 25 L 0 215 C 87.19327 233.23364 114.80512 254.17553 145 275 L 145 265 C 110.04081 238.21838 66.27103 217.50398 10 210 L 10 30 C 7.85765 28.18446 7.16897 26.187212 0 25 z M 310 185.44336 C 307.09321 187.95253 303.94607 189.50458 300 190.39648 L 300 210 C 203.25038 228.81177 185 250 165 265 L 165 275 C 209.57238 235.43585 258.67912 224.62122 310 215 L 310 185.44336 z "
       transform="translate(-485,317.36215)"
       id="path3082" />
  </g>
  <g
     inkscape:groupmode="layer"
     id="layer1"
     inkscape:label="Calendrier"
     style="display:inline"
     sodipodi:insensitive="true">
    <path
       inkscape:connector-curvature="0"
       id="path833"
       d="m 146.10888,182.61609 c -3.2513,-0.35026 -6.68854,-1.61963 -9.58693,-3.54048 -1.61341,-1.06927 -4.49448,-3.95325 -5.5561,-5.56177 -1.60522,-2.43194 -2.69986,-5.08015 -3.28035,-7.93518 -0.24582,-1.21201 -0.25641,-3.96249 -0.25641,-67.173209 0,-63.210585 0.0109,-65.961207 0.25641,-67.1732 0.90273,-4.441506 2.67833,-7.75239 5.86642,-10.940622 3.12493,-3.124941 6.25013,-4.837352 10.56686,-5.790059 1.19351,-0.262998 1.93735,-0.30663 6.21957,-0.364773 3.02225,-0.03953 4.93066,-0.118964 5.0401,-0.210157 0.13621,-0.105826 0.17577,-1.694307 0.17577,-7.0357527 V 0 h 6.76716 6.76719 v 6.879919 c 0,5.163145 0.0398,6.922201 0.16916,7.049228 0.24714,0.245834 98.667,0.245834 98.91363,0 0.1321,-0.132089 0.16915,-1.886083 0.16915,-7.049228 V 0 h 6.76717 6.76717 v 6.8908873 c 0,5.3414457 0.0398,6.9235387 0.17577,7.0357527 0.10583,0.09257 2.01787,0.170574 5.04012,0.210157 4.2822,0.05279 5.02607,0.105825 6.21957,0.364773 4.31529,0.951647 7.4394,2.664057 10.56857,5.790059 3.17225,3.169188 4.96449,6.512603 5.8647,10.940622 C 309.98942,32.444244 310,35.197108 310,98.476034 v 65.979956 l -0.31854,1.43631 c -0.95428,4.3072 -2.71533,7.52756 -5.80999,10.62235 -3.07431,3.07419 -6.33114,4.85598 -10.6152,5.80747 l -1.44345,0.32118 -72.60626,0.0129 c -39.93334,0.007 -72.82816,-0.0109 -73.09951,-0.0398 z M 290.86447,168.9666 c 2.0057,-0.47316 3.82966,-1.84868 4.73504,-3.57166 1.01242,-1.92773 0.93312,2.22167 0.93576,-48.95075 10e-4,-35.731216 -0.0398,-46.217174 -0.16647,-46.348009 -0.1321,-0.132101 -17.57588,-0.169152 -77.65334,-0.169152 -60.07748,0 -77.52224,0.03978 -77.65335,0.169152 -0.1321,0.132089 -0.16915,10.616793 -0.16647,46.348009 0.001,51.17242 -0.0792,47.02302 0.93578,48.95075 0.8895,1.6931 2.72379,3.09306 4.67054,3.56506 1.25431,0.30399 143.07357,0.31061 144.36344,0.007 z M 155.55463,147.74952 v -6.76718 h 6.76718 6.76718 v 6.76718 6.76717 h -6.76718 -6.76718 z m 28.19667,0 v -6.76718 h 6.76717 6.76718 v 6.76718 6.76717 h -6.76718 -6.76717 z m 28.19652,0 v -6.76718 h 6.76718 6.76717 v 6.76718 6.76717 h -6.76717 -6.76718 z m -56.39319,-28.19666 v -6.76716 h 6.76718 6.76718 v 6.76716 6.76717 h -6.76718 -6.76718 z m 28.19667,0 v -6.76716 h 6.76717 6.76718 v 6.76716 6.76717 h -6.76718 -6.76717 z m 28.19652,0 v -6.76716 h 6.76718 6.76717 v 6.76716 6.76717 h -6.76717 -6.76718 z m 28.19653,0 v -6.76716 h 6.76716 6.76718 v 6.76716 6.76717 h -6.76718 -6.76716 z m 28.19665,0 v -6.76716 h 6.76717 6.76718 v 6.76716 6.76717 H 275.10817 268.341 Z M 183.7513,91.356356 v -6.767175 h 6.76717 6.76718 v 6.767175 6.767163 h -6.76718 -6.76717 z m 28.19652,0 v -6.767175 h 6.76718 6.76717 v 6.767175 6.767163 h -6.76717 -6.76718 z m 28.19653,0 v -6.767175 h 6.76716 6.76718 v 6.767175 6.767163 h -6.76718 -6.76716 z m 28.19665,0 v -6.767175 h 6.76717 6.76718 v 6.767175 6.767163 h -6.76718 -6.76717 z m 28.02735,-35.132878 c 0.13209,-0.132101 0.16914,-2.784455 0.16645,-11.102409 -0.001,-11.995865 0.007,-11.857087 -0.85383,-13.560795 -0.79303,-1.570703 -2.19511,-2.800028 -4.00836,-3.514423 -0.81154,-0.319863 -1.02301,-0.335725 -5.1182,-0.384624 -3.1807,-0.03978 -4.32438,-0.0072 -4.47626,0.118963 -0.17308,0.144094 -0.20353,1.221286 -0.20353,7.060088 v 6.890887 h -6.76718 -6.76718 v -6.879919 c 0,-5.163157 -0.0398,-6.922213 -0.16914,-7.049095 -0.24716,-0.24716 -98.66701,-0.24716 -98.91365,0 -0.13209,0.132089 -0.16914,1.885938 -0.16914,7.049095 v 6.879919 h -6.76718 -6.76719 v -6.890887 c 0,-5.838935 -0.0265,-6.916681 -0.20352,-7.060088 -0.15197,-0.132089 -1.2953,-0.155894 -4.47626,-0.118963 -4.09573,0.05279 -4.30734,0.06605 -5.1182,0.384624 -1.81326,0.715046 -3.21534,1.94372 -4.00825,3.514423 -0.86043,1.703708 -0.85117,1.56493 -0.85381,13.560795 -0.001,8.317954 0.0398,10.973671 0.16645,11.102409 0.24717,0.247136 155.06008,0.247136 155.30672,0 z"
       style="fill:#ffffff;stroke-width:0.14098288" />
  </g>
</svg>
