<?xml version="1.0" encoding="UTF-8" standalone="no"?>
<!-- Created with Inkscape (http://www.inkscape.org/) -->

<svg
   xmlns:dc="http://purl.org/dc/elements/1.1/"
   xmlns:cc="http://creativecommons.org/ns#"
   xmlns:rdf="http://www.w3.org/1999/02/22-rdf-syntax-ns#"
   xmlns:svg="http://www.w3.org/2000/svg"
   xmlns="http://www.w3.org/2000/svg"
   xmlns:xlink="http://www.w3.org/1999/xlink"
   xmlns:sodipodi="http://sodipodi.sourceforge.net/DTD/sodipodi-0.dtd"
   xmlns:inkscape="http://www.inkscape.org/namespaces/inkscape"
   width="122.21562"
   height="116.23396"
   id="svg2"
   version="1.1"
   inkscape:version="0.91 r13725"
   sodipodi:docname="ic_favourite_on_normal.svg"
   inkscape:export-filename="F:\git\AdoreDieu\AdoreDieuapp\src\main\res\drawable-xhdpi\ic_pensee.png"
   inkscape:export-xdpi="47.610001"
   inkscape:export-ydpi="47.610001">
  <defs
     id="defs4">
    <linearGradient
       inkscape:collect="always"
       id="linearGradient3786">
      <stop
         style="stop-color:#000000;stop-opacity:1;"
         offset="0"
         id="stop3788" />
      <stop
         style="stop-color:#000000;stop-opacity:0;"
         offset="1"
         id="stop3790" />
    </linearGradient>
    <linearGradient
       id="linearGradient3771">
      <stop
         style="stop-color:#6f6f6f;stop-opacity:1;"
         offset="0"
         id="stop3773" />
      <stop
         style="stop-color:#a6a6a6;stop-opacity:1;"
         offset="1"
         id="stop3775" />
    </linearGradient>
    <linearGradient
       inkscape:collect="always"
       xlink:href="#linearGradient3771"
       id="linearGradient3777"
       x1="685"
       y1="155.28683"
       x2="565"
       y2="120.28683"
       gradientUnits="userSpaceOnUse" />
    <linearGradient
       inkscape:collect="always"
       xlink:href="#linearGradient3786"
       id="linearGradient3792"
       x1="73.013138"
       y1="695.60498"
       x2="673.02954"
       y2="695.60498"
       gradientUnits="userSpaceOnUse" />
    <linearGradient
       inkscape:collect="always"
       xlink:href="#linearGradient3786"
       id="linearGradient3794"
       gradientUnits="userSpaceOnUse"
       x1="73.013138"
       y1="695.60498"
       x2="673.02954"
       y2="695.60498" />
    <linearGradient
       inkscape:collect="always"
       xlink:href="#linearGradient3786"
       id="linearGradient3796"
       gradientUnits="userSpaceOnUse"
       x1="73.013138"
       y1="695.60498"
       x2="673.02954"
       y2="695.60498" />
    <linearGradient
       inkscape:collect="always"
       xlink:href="#linearGradient3786"
       id="linearGradient3798"
       gradientUnits="userSpaceOnUse"
       x1="73.013138"
       y1="695.60498"
       x2="673.02954"
       y2="695.60498" />
    <linearGradient
       inkscape:collect="always"
       xlink:href="#linearGradient3786"
       id="linearGradient3800"
       gradientUnits="userSpaceOnUse"
       x1="73.013138"
       y1="695.60498"
       x2="673.02954"
       y2="695.60498" />
    <linearGradient
       inkscape:collect="always"
       xlink:href="#linearGradient3786"
       id="linearGradient3802"
       gradientUnits="userSpaceOnUse"
       x1="73.013138"
       y1="695.60498"
       x2="673.02954"
       y2="695.60498" />
    <linearGradient
       inkscape:collect="always"
       xlink:href="#linearGradient3786"
       id="linearGradient3804"
       gradientUnits="userSpaceOnUse"
       x1="73.013138"
       y1="695.60498"
       x2="673.02954"
       y2="695.60498" />
    <linearGradient
       inkscape:collect="always"
       xlink:href="#linearGradient3786"
       id="linearGradient3806"
       gradientUnits="userSpaceOnUse"
       x1="73.013138"
       y1="695.60498"
       x2="673.02954"
       y2="695.60498" />
    <linearGradient
       inkscape:collect="always"
       xlink:href="#linearGradient3786"
       id="linearGradient3808"
       gradientUnits="userSpaceOnUse"
       x1="73.013138"
       y1="695.60498"
       x2="673.02954"
       y2="695.60498"
       gradientTransform="translate(591.94939,-87.883271)" />
    <linearGradient
       inkscape:collect="always"
       xlink:href="#linearGradient3786"
       id="linearGradient3812"
       gradientUnits="userSpaceOnUse"
       x1="73.013138"
       y1="695.60498"
       x2="673.02954"
       y2="695.60498" />
    <linearGradient
       gradientUnits="userSpaceOnUse"
       y2="120.28683"
       x2="565"
       y1="155.28683"
       x1="685"
       id="linearGradient3777-4"
       xlink:href="#linearGradient3771-4"
       inkscape:collect="always" />
    <linearGradient
       id="linearGradient3771-4">
      <stop
         id="stop3773-0"
         offset="0"
         style="stop-color:#777777;stop-opacity:1;" />
      <stop
         id="stop3775-9"
         offset="1"
         style="stop-color:#787878;stop-opacity:0;" />
    </linearGradient>
    <linearGradient
       gradientUnits="userSpaceOnUse"
       y2="120.28683"
       x2="565"
       y1="155.28683"
       x1="685"
       id="linearGradient3777-1"
       xlink:href="#linearGradient3771-1"
       inkscape:collect="always" />
    <linearGradient
       id="linearGradient3771-1">
      <stop
         id="stop3773-7"
         offset="0"
         style="stop-color:#777777;stop-opacity:1;" />
      <stop
         id="stop3775-1"
         offset="1"
         style="stop-color:#787878;stop-opacity:0;" />
    </linearGradient>
    <linearGradient
       inkscape:collect="always"
       xlink:href="#linearGradient3771-1-7"
       id="linearGradient3810-1"
       gradientUnits="userSpaceOnUse"
       gradientTransform="matrix(0.1651689,0,0,0.1651689,143.78012,868.84422)"
       x1="120.50161"
       y1="476.22427"
       x2="660.50159"
       y2="976.22424" />
    <linearGradient
       id="linearGradient3771-1-7">
      <stop
         id="stop3773-7-4"
         offset="0"
         style="stop-color:#777777;stop-opacity:1;" />
      <stop
         id="stop3775-1-0"
         offset="1"
         style="stop-color:#787878;stop-opacity:0;" />
    </linearGradient>
    <linearGradient
       gradientUnits="userSpaceOnUse"
       y2="819.60504"
       x2="733.02954"
       y1="769.60504"
       x1="668.02954"
       id="linearGradient4042"
       xlink:href="#linearGradient3868"
       inkscape:collect="always" />
    <linearGradient
       inkscape:collect="always"
       id="linearGradient3763">
      <stop
         style="stop-color:#555555;stop-opacity:1;"
         offset="0"
         id="stop3765" />
      <stop
         style="stop-color:#555555;stop-opacity:0;"
         offset="1"
         id="stop3767" />
    </linearGradient>
    <linearGradient
       inkscape:collect="always"
       id="linearGradient2989-4-7">
      <stop
         style="stop-color:#777777;stop-opacity:1;"
         offset="0"
         id="stop2991-0-4" />
      <stop
         style="stop-color:#777777;stop-opacity:0;"
         offset="1"
         id="stop2993-9-0" />
    </linearGradient>
    <linearGradient
       id="linearGradient3771-4-9">
      <stop
         style="stop-color:#777777;stop-opacity:1;"
         offset="0"
         id="stop3773-8-4" />
      <stop
         style="stop-color:#787878;stop-opacity:0;"
         offset="1"
         id="stop3775-8-8" />
    </linearGradient>
    <linearGradient
       inkscape:collect="always"
       xlink:href="#linearGradient3771-4-9"
       id="linearGradient3777-2-8"
       x1="560"
       y1="85.286827"
       x2="695"
       y2="180.28682"
       gradientUnits="userSpaceOnUse" />
    <linearGradient
       inkscape:collect="always"
       xlink:href="#linearGradient2989-4-7"
       id="linearGradient2995-45"
       x1="711.87061"
       y1="194.48755"
       x2="745.1825"
       y2="219.61742"
       gradientUnits="userSpaceOnUse" />
    <linearGradient
       inkscape:collect="always"
       xlink:href="#linearGradient3763"
       id="linearGradient3769"
       x1="687.52954"
       y1="779.60504"
       x2="843.52954"
       y2="779.60504"
       gradientUnits="userSpaceOnUse"
       gradientTransform="translate(-815.67956,-696.31488)" />
    <linearGradient
       inkscape:collect="always"
       xlink:href="#linearGradient3763-7"
       id="linearGradient3769-1"
       x1="687.52954"
       y1="779.60504"
       x2="843.52954"
       y2="779.60504"
       gradientUnits="userSpaceOnUse"
       gradientTransform="translate(54.999989,-35.000013)" />
    <linearGradient
       inkscape:collect="always"
       id="linearGradient3763-7">
      <stop
         style="stop-color:#555555;stop-opacity:1;"
         offset="0"
         id="stop3765-4" />
      <stop
         style="stop-color:#555555;stop-opacity:0;"
         offset="1"
         id="stop3767-0" />
    </linearGradient>
    <linearGradient
       y2="779.60504"
       x2="843.52954"
       y1="779.60504"
       x1="687.52954"
       gradientTransform="translate(-1527.6346,-76.57551)"
       gradientUnits="userSpaceOnUse"
       id="linearGradient3786-9"
       xlink:href="#linearGradient3763-7"
       inkscape:collect="always" />
    <linearGradient
       inkscape:collect="always"
       xlink:href="#linearGradient3763"
       id="linearGradient3806-8"
       gradientUnits="userSpaceOnUse"
       gradientTransform="translate(-64.99378,-29.991102)"
       x1="688.02332"
       y1="689.59613"
       x2="868.02332"
       y2="869.59613" />
    <linearGradient
       inkscape:collect="always"
       id="linearGradient3776-6-2">
      <stop
         style="stop-color:#555555;stop-opacity:1;"
         offset="0"
         id="stop3778-8-4" />
      <stop
         style="stop-color:#555555;stop-opacity:0;"
         offset="1"
         id="stop3780-8-5" />
    </linearGradient>
    <linearGradient
       inkscape:collect="always"
       id="linearGradient2989-2-5">
      <stop
         style="stop-color:#777777;stop-opacity:1;"
         offset="0"
         id="stop2991-7-1" />
      <stop
         style="stop-color:#777777;stop-opacity:0;"
         offset="1"
         id="stop2993-7-7" />
    </linearGradient>
    <linearGradient
       id="linearGradient3771-1-1">
      <stop
         style="stop-color:#777777;stop-opacity:1;"
         offset="0"
         id="stop3773-2-1" />
      <stop
         style="stop-color:#787878;stop-opacity:0;"
         offset="1"
         id="stop3775-6-5" />
    </linearGradient>
    <linearGradient
       inkscape:collect="always"
       xlink:href="#linearGradient3771-1-1"
       id="linearGradient3777-0-2"
       x1="560"
       y1="85.286827"
       x2="695"
       y2="180.28682"
       gradientUnits="userSpaceOnUse" />
    <linearGradient
       inkscape:collect="always"
       xlink:href="#linearGradient2989-2-5"
       id="linearGradient2995-4-7"
       x1="711.87061"
       y1="194.48755"
       x2="745.1825"
       y2="219.61742"
       gradientUnits="userSpaceOnUse" />
    <linearGradient
       inkscape:collect="always"
       xlink:href="#linearGradient3776-6-2"
       id="linearGradient3782-9-6"
       x1="622.52954"
       y1="739.60504"
       x2="738.52954"
       y2="739.60504"
       gradientUnits="userSpaceOnUse"
       gradientTransform="translate(10,-5.0000018)" />
    <linearGradient
       inkscape:collect="always"
       xlink:href="#linearGradient3776-6-2"
       id="linearGradient3804-4-1"
       gradientUnits="userSpaceOnUse"
       gradientTransform="translate(0,-35.000006)"
       x1="622.52954"
       y1="739.60504"
       x2="738.52954"
       y2="739.60504" />
    <linearGradient
       inkscape:collect="always"
       xlink:href="#linearGradient3776-6-2"
       id="linearGradient3808-42"
       gradientUnits="userSpaceOnUse"
       gradientTransform="translate(0,-35.000006)"
       x1="622.52954"
       y1="739.60504"
       x2="738.52954"
       y2="739.60504" />
    <linearGradient
       gradientTransform="matrix(-1.0775862,0,0,1.0775862,1483.8166,-59.819356)"
       gradientUnits="userSpaceOnUse"
       y2="769.60504"
       x2="743.02954"
       y1="679.60504"
       x1="683.02954"
       id="linearGradient3772"
       xlink:href="#linearGradient3771-85"
       inkscape:collect="always" />
    <linearGradient
       y2="739.60504"
       x2="738.52954"
       y1="739.60504"
       x1="622.52954"
       gradientTransform="translate(0,-35.000006)"
       gradientUnits="userSpaceOnUse"
       id="linearGradient3804-3"
       xlink:href="#linearGradient3776-54"
       inkscape:collect="always" />
    <linearGradient
       gradientTransform="translate(10,-5.0000018)"
       gradientUnits="userSpaceOnUse"
       y2="739.60504"
       x2="738.52954"
       y1="739.60504"
       x1="622.52954"
       id="linearGradient3782-2"
       xlink:href="#linearGradient3776-54"
       inkscape:collect="always" />
    <linearGradient
       gradientUnits="userSpaceOnUse"
       y2="219.61742"
       x2="745.1825"
       y1="194.48755"
       x1="711.87061"
       id="linearGradient2995-2"
       xlink:href="#linearGradient2989-9"
       inkscape:collect="always" />
    <linearGradient
       gradientUnits="userSpaceOnUse"
       y2="180.28682"
       x2="695"
       y1="85.286827"
       x1="560"
       id="linearGradient3777-16"
       xlink:href="#linearGradient3771-85"
       inkscape:collect="always" />
    <linearGradient
       id="linearGradient3771-85">
      <stop
         id="stop3773-76"
         offset="0"
         style="stop-color:#777777;stop-opacity:1;" />
      <stop
         id="stop3775-18"
         offset="1"
         style="stop-color:#787878;stop-opacity:0;" />
    </linearGradient>
    <linearGradient
       id="linearGradient2989-9"
       inkscape:collect="always">
      <stop
         id="stop2991-2"
         offset="0"
         style="stop-color:#777777;stop-opacity:1;" />
      <stop
         id="stop2993-79"
         offset="1"
         style="stop-color:#777777;stop-opacity:0;" />
    </linearGradient>
    <linearGradient
       id="linearGradient3776-54"
       inkscape:collect="always">
      <stop
         id="stop3778-3"
         offset="0"
         style="stop-color:#555555;stop-opacity:1;" />
      <stop
         id="stop3780-1"
         offset="1"
         style="stop-color:#555555;stop-opacity:0;" />
    </linearGradient>
    <linearGradient
       inkscape:collect="always"
       xlink:href="#linearGradient3776-54"
       id="linearGradient3858"
       x1="-0.60000002"
       y1="47.613014"
       x2="66.98632"
       y2="47.613014"
       gradientUnits="userSpaceOnUse" />
    <linearGradient
       id="linearGradient3771-1-5">
      <stop
         style="stop-color:#777777;stop-opacity:1;"
         offset="0"
         id="stop3773-7-6" />
      <stop
         style="stop-color:#787878;stop-opacity:0;"
         offset="1"
         id="stop3775-1-1" />
    </linearGradient>
    <linearGradient
       inkscape:collect="always"
       xlink:href="#linearGradient3771-1-5"
       id="linearGradient3777-1-7"
       x1="685"
       y1="155.28683"
       x2="565"
       y2="120.28683"
       gradientUnits="userSpaceOnUse" />
    <linearGradient
       id="linearGradient3771-4-5">
      <stop
         style="stop-color:#777777;stop-opacity:1;"
         offset="0"
         id="stop3773-0-8" />
      <stop
         style="stop-color:#787878;stop-opacity:0;"
         offset="1"
         id="stop3775-9-5" />
    </linearGradient>
    <linearGradient
       inkscape:collect="always"
       xlink:href="#linearGradient3771-4-5"
       id="linearGradient3777-4-6"
       x1="685"
       y1="155.28683"
       x2="565"
       y2="120.28683"
       gradientUnits="userSpaceOnUse" />
    <linearGradient
       y2="695.60498"
       x2="673.02954"
       y1="695.60498"
       x1="73.013138"
       gradientUnits="userSpaceOnUse"
       id="linearGradient3812-1"
       xlink:href="#linearGradient3786-7"
       inkscape:collect="always" />
    <linearGradient
       gradientTransform="translate(591.94939,-87.883271)"
       y2="695.60498"
       x2="673.02954"
       y1="695.60498"
       x1="73.013138"
       gradientUnits="userSpaceOnUse"
       id="linearGradient3808-4"
       xlink:href="#linearGradient3786-7"
       inkscape:collect="always" />
    <linearGradient
       y2="695.60498"
       x2="673.02954"
       y1="695.60498"
       x1="73.013138"
       gradientUnits="userSpaceOnUse"
       id="linearGradient3806-2"
       xlink:href="#linearGradient3786-7"
       inkscape:collect="always" />
    <linearGradient
       y2="695.60498"
       x2="673.02954"
       y1="695.60498"
       x1="73.013138"
       gradientUnits="userSpaceOnUse"
       id="linearGradient3804-8"
       xlink:href="#linearGradient3786-7"
       inkscape:collect="always" />
    <linearGradient
       y2="695.60498"
       x2="673.02954"
       y1="695.60498"
       x1="73.013138"
       gradientUnits="userSpaceOnUse"
       id="linearGradient3802-2"
       xlink:href="#linearGradient3786-7"
       inkscape:collect="always" />
    <linearGradient
       y2="695.60498"
       x2="673.02954"
       y1="695.60498"
       x1="73.013138"
       gradientUnits="userSpaceOnUse"
       id="linearGradient3800-2"
       xlink:href="#linearGradient3786-7"
       inkscape:collect="always" />
    <linearGradient
       y2="695.60498"
       x2="673.02954"
       y1="695.60498"
       x1="73.013138"
       gradientUnits="userSpaceOnUse"
       id="linearGradient3798-3"
       xlink:href="#linearGradient3786-7"
       inkscape:collect="always" />
    <linearGradient
       y2="695.60498"
       x2="673.02954"
       y1="695.60498"
       x1="73.013138"
       gradientUnits="userSpaceOnUse"
       id="linearGradient3796-2"
       xlink:href="#linearGradient3786-7"
       inkscape:collect="always" />
    <linearGradient
       y2="695.60498"
       x2="673.02954"
       y1="695.60498"
       x1="73.013138"
       gradientUnits="userSpaceOnUse"
       id="linearGradient3794-4"
       xlink:href="#linearGradient3786-7"
       inkscape:collect="always" />
    <linearGradient
       gradientUnits="userSpaceOnUse"
       y2="695.60498"
       x2="673.02954"
       y1="695.60498"
       x1="73.013138"
       id="linearGradient3792-1"
       xlink:href="#linearGradient3786-7"
       inkscape:collect="always" />
    <linearGradient
       gradientUnits="userSpaceOnUse"
       y2="120.28683"
       x2="565"
       y1="155.28683"
       x1="685"
       id="linearGradient3777-8"
       xlink:href="#linearGradient3771-40"
       inkscape:collect="always" />
    <linearGradient
       id="linearGradient3771-40">
      <stop
         id="stop3773-9"
         offset="0"
         style="stop-color:#6f6f6f;stop-opacity:1;" />
      <stop
         id="stop3775-4-2"
         offset="1"
         style="stop-color:#a6a6a6;stop-opacity:1;" />
    </linearGradient>
    <linearGradient
       id="linearGradient3786-7"
       inkscape:collect="always">
      <stop
         id="stop3788-7"
         offset="0"
         style="stop-color:#000000;stop-opacity:1;" />
      <stop
         id="stop3790-6"
         offset="1"
         style="stop-color:#000000;stop-opacity:0;" />
    </linearGradient>
    <linearGradient
       inkscape:collect="always"
       xlink:href="#linearGradient3868"
       id="linearGradient3891"
       gradientUnits="userSpaceOnUse"
       x1="2.8284271"
       y1="2.9570835"
       x2="102.53049"
       y2="102.48236"
       gradientTransform="translate(273.97396,528.70519)" />
    <linearGradient
       id="linearGradient3868">
      <stop
         id="stop3870"
         offset="0"
         style="stop-color:#10AED4;stop-opacity:1;" />
      <stop
         id="stop3872"
         offset="1"
         style="stop-color:#96DCEB;stop-opacity:1;" />
    </linearGradient>
    <linearGradient
       gradientUnits="userSpaceOnUse"
       y2="102.48236"
       x2="102.53049"
       y1="2.9570835"
       x1="2.8284271"
       id="linearGradient3874"
       xlink:href="#linearGradient3868"
       inkscape:collect="always" />
    <linearGradient
       inkscape:collect="always"
       id="linearGradient3763-2">
      <stop
         style="stop-color:#555555;stop-opacity:1;"
         offset="0"
         id="stop3765-1" />
      <stop
         style="stop-color:#555555;stop-opacity:0;"
         offset="1"
         id="stop3767-6" />
    </linearGradient>
    <linearGradient
       inkscape:collect="always"
       id="linearGradient2989-4-2">
      <stop
         style="stop-color:#777777;stop-opacity:1;"
         offset="0"
         id="stop2991-0-3" />
      <stop
         style="stop-color:#777777;stop-opacity:0;"
         offset="1"
         id="stop2993-9-2" />
    </linearGradient>
    <linearGradient
       id="linearGradient3771-4-6">
      <stop
         style="stop-color:#777777;stop-opacity:1;"
         offset="0"
         id="stop3773-8-1" />
      <stop
         style="stop-color:#787878;stop-opacity:0;"
         offset="1"
         id="stop3775-8-4" />
    </linearGradient>
    <linearGradient
       inkscape:collect="always"
       xlink:href="#linearGradient3771-4-6"
       id="linearGradient3777-2-7"
       x1="560"
       y1="85.286827"
       x2="695"
       y2="180.28682"
       gradientUnits="userSpaceOnUse" />
    <linearGradient
       inkscape:collect="always"
       xlink:href="#linearGradient2989-4-2"
       id="linearGradient2995-4-2"
       x1="711.87061"
       y1="194.48755"
       x2="745.1825"
       y2="219.61742"
       gradientUnits="userSpaceOnUse" />
    <linearGradient
       inkscape:collect="always"
       xlink:href="#linearGradient3763-2"
       id="linearGradient3769-5"
       x1="687.52954"
       y1="779.60504"
       x2="843.52954"
       y2="779.60504"
       gradientUnits="userSpaceOnUse"
       gradientTransform="translate(-815.67956,-696.31488)" />
    <linearGradient
       inkscape:collect="always"
       xlink:href="#linearGradient3763-7-1"
       id="linearGradient3769-1-1"
       x1="687.52954"
       y1="779.60504"
       x2="843.52954"
       y2="779.60504"
       gradientUnits="userSpaceOnUse"
       gradientTransform="translate(54.999989,-35.000013)" />
    <linearGradient
       inkscape:collect="always"
       id="linearGradient3763-7-1">
      <stop
         style="stop-color:#555555;stop-opacity:1;"
         offset="0"
         id="stop3765-4-7" />
      <stop
         style="stop-color:#555555;stop-opacity:0;"
         offset="1"
         id="stop3767-0-1" />
    </linearGradient>
    <linearGradient
       y2="779.60504"
       x2="843.52954"
       y1="779.60504"
       x1="687.52954"
       gradientTransform="translate(-1527.6346,-76.57551)"
       gradientUnits="userSpaceOnUse"
       id="linearGradient3786-5"
       xlink:href="#linearGradient3763-7-1"
       inkscape:collect="always" />
    <linearGradient
       gradientUnits="userSpaceOnUse"
       y2="219.61742"
       x2="745.1825"
       y1="194.48755"
       x1="711.87061"
       id="linearGradient2995-5-3"
       xlink:href="#linearGradient2989-7"
       inkscape:collect="always" />
    <linearGradient
       gradientUnits="userSpaceOnUse"
       y2="180.28682"
       x2="695"
       y1="85.286827"
       x1="560"
       id="linearGradient3777-24"
       xlink:href="#linearGradient3771-9"
       inkscape:collect="always" />
    <linearGradient
       id="linearGradient3771-9">
      <stop
         id="stop3773-4"
         offset="0"
         style="stop-color:#777777;stop-opacity:1;" />
      <stop
         id="stop3775-88"
         offset="1"
         style="stop-color:#787878;stop-opacity:0;" />
    </linearGradient>
    <linearGradient
       id="linearGradient2989-7"
       inkscape:collect="always">
      <stop
         id="stop2991-4"
         offset="0"
         style="stop-color:#777777;stop-opacity:1;" />
      <stop
         id="stop2993-0"
         offset="1"
         style="stop-color:#777777;stop-opacity:0;" />
    </linearGradient>
    <linearGradient
       gradientTransform="translate(538.99794,717.81051)"
       inkscape:collect="always"
       xlink:href="#linearGradient3868"
       id="linearGradient3910"
       x1="6.7414842"
       y1="4.738791"
       x2="71.759354"
       y2="101.51654"
       gradientUnits="userSpaceOnUse" />
    <linearGradient
       inkscape:collect="always"
       id="linearGradient2989-40">
      <stop
         style="stop-color:#777777;stop-opacity:1;"
         offset="0"
         id="stop2991-9" />
      <stop
         style="stop-color:#777777;stop-opacity:0;"
         offset="1"
         id="stop2993-4" />
    </linearGradient>
    <linearGradient
       id="linearGradient3771-8">
      <stop
         style="stop-color:#777777;stop-opacity:1;"
         offset="0"
         id="stop3773-82" />
      <stop
         style="stop-color:#787878;stop-opacity:0;"
         offset="1"
         id="stop3775-4" />
    </linearGradient>
    <linearGradient
       inkscape:collect="always"
       xlink:href="#linearGradient3771-8"
       id="linearGradient3777-5"
       x1="560"
       y1="85.286827"
       x2="695"
       y2="180.28682"
       gradientUnits="userSpaceOnUse" />
    <linearGradient
       inkscape:collect="always"
       xlink:href="#linearGradient2989-40"
       id="linearGradient2995-5"
       x1="711.87061"
       y1="194.48755"
       x2="745.1825"
       y2="219.61742"
       gradientUnits="userSpaceOnUse" />
    <linearGradient
       y2="812.60675"
       x2="738.95099"
       y1="672.60675"
       x1="623.95099"
       gradientTransform="translate(0,-35.000006)"
       gradientUnits="userSpaceOnUse"
       id="linearGradient3808-1"
       xlink:href="#linearGradient3776-5"
       inkscape:collect="always" />
    <linearGradient
       y2="739.60504"
       x2="738.52954"
       y1="739.60504"
       x1="622.52954"
       gradientTransform="translate(0,-35.000006)"
       gradientUnits="userSpaceOnUse"
       id="linearGradient3804-7"
       xlink:href="#linearGradient3776-5"
       inkscape:collect="always" />
    <linearGradient
       gradientTransform="translate(10,-5.0000018)"
       gradientUnits="userSpaceOnUse"
       y2="739.60504"
       x2="738.52954"
       y1="739.60504"
       x1="622.52954"
       id="linearGradient3782-1"
       xlink:href="#linearGradient3776-5"
       inkscape:collect="always" />
    <linearGradient
       gradientUnits="userSpaceOnUse"
       y2="219.61742"
       x2="745.1825"
       y1="194.48755"
       x1="711.87061"
       id="linearGradient2995-4-1"
       xlink:href="#linearGradient2989-4"
       inkscape:collect="always" />
    <linearGradient
       gradientUnits="userSpaceOnUse"
       y2="180.28682"
       x2="695"
       y1="85.286827"
       x1="560"
       id="linearGradient3777-2"
       xlink:href="#linearGradient3771-4-52"
       inkscape:collect="always" />
    <linearGradient
       id="linearGradient3771-4-52">
      <stop
         id="stop3773-8"
         offset="0"
         style="stop-color:#777777;stop-opacity:1;" />
      <stop
         id="stop3775-8"
         offset="1"
         style="stop-color:#787878;stop-opacity:0;" />
    </linearGradient>
    <linearGradient
       id="linearGradient2989-4"
       inkscape:collect="always">
      <stop
         id="stop2991-0"
         offset="0"
         style="stop-color:#777777;stop-opacity:1;" />
      <stop
         id="stop2993-9"
         offset="1"
         style="stop-color:#777777;stop-opacity:0;" />
    </linearGradient>
    <linearGradient
       id="linearGradient3776-5"
       inkscape:collect="always">
      <stop
         id="stop3778-2"
         offset="0"
         style="stop-color:#555555;stop-opacity:1;" />
      <stop
         id="stop3780-7"
         offset="1"
         style="stop-color:#555555;stop-opacity:0;" />
    </linearGradient>
    <linearGradient
       inkscape:collect="always"
       id="linearGradient3776-6">
      <stop
         style="stop-color:#555555;stop-opacity:1;"
         offset="0"
         id="stop3778-8" />
      <stop
         style="stop-color:#555555;stop-opacity:0;"
         offset="1"
         id="stop3780-8" />
    </linearGradient>
    <linearGradient
       inkscape:collect="always"
       id="linearGradient2989-2">
      <stop
         style="stop-color:#777777;stop-opacity:1;"
         offset="0"
         id="stop2991-7" />
      <stop
         style="stop-color:#777777;stop-opacity:0;"
         offset="1"
         id="stop2993-7" />
    </linearGradient>
    <linearGradient
       id="linearGradient3771-1-11">
      <stop
         style="stop-color:#777777;stop-opacity:1;"
         offset="0"
         id="stop3773-2" />
      <stop
         style="stop-color:#787878;stop-opacity:0;"
         offset="1"
         id="stop3775-6" />
    </linearGradient>
    <linearGradient
       inkscape:collect="always"
       xlink:href="#linearGradient3771-1-11"
       id="linearGradient3777-0"
       x1="560"
       y1="85.286827"
       x2="695"
       y2="180.28682"
       gradientUnits="userSpaceOnUse" />
    <linearGradient
       inkscape:collect="always"
       xlink:href="#linearGradient2989-2"
       id="linearGradient2995-4"
       x1="711.87061"
       y1="194.48755"
       x2="745.1825"
       y2="219.61742"
       gradientUnits="userSpaceOnUse" />
    <linearGradient
       inkscape:collect="always"
       xlink:href="#linearGradient3776-6"
       id="linearGradient3782-9"
       x1="622.52954"
       y1="739.60504"
       x2="738.52954"
       y2="739.60504"
       gradientUnits="userSpaceOnUse"
       gradientTransform="translate(10,-5.0000018)" />
    <linearGradient
       inkscape:collect="always"
       xlink:href="#linearGradient3776-6"
       id="linearGradient3804-4"
       gradientUnits="userSpaceOnUse"
       gradientTransform="translate(0,-35.000006)"
       x1="622.52954"
       y1="739.60504"
       x2="738.52954"
       y2="739.60504" />
    <linearGradient
       inkscape:collect="always"
       xlink:href="#linearGradient3776-6"
       id="linearGradient3808-17"
       gradientUnits="userSpaceOnUse"
       gradientTransform="translate(0,-35.000006)"
       x1="622.52954"
       y1="739.60504"
       x2="738.52954"
       y2="739.60504" />
    <linearGradient
       y2="739.60504"
       x2="738.52954"
       y1="739.60504"
       x1="622.52954"
       gradientTransform="translate(0,-35.000006)"
       gradientUnits="userSpaceOnUse"
       id="linearGradient3804-5"
       xlink:href="#linearGradient3776"
       inkscape:collect="always" />
    <linearGradient
       gradientTransform="translate(10,-5.0000018)"
       gradientUnits="userSpaceOnUse"
       y2="739.60504"
       x2="738.52954"
       y1="739.60504"
       x1="622.52954"
       id="linearGradient3782"
       xlink:href="#linearGradient3776"
       inkscape:collect="always" />
    <linearGradient
       gradientUnits="userSpaceOnUse"
       y2="219.61742"
       x2="745.1825"
       y1="194.48755"
       x1="711.87061"
       id="linearGradient2995"
       xlink:href="#linearGradient2989"
       inkscape:collect="always" />
    <linearGradient
       gradientUnits="userSpaceOnUse"
       y2="180.28682"
       x2="695"
       y1="85.286827"
       x1="560"
       id="linearGradient3777-45"
       xlink:href="#linearGradient3771-409"
       inkscape:collect="always" />
    <linearGradient
       id="linearGradient3771-409">
      <stop
         id="stop3773-48"
         offset="0"
         style="stop-color:#777777;stop-opacity:1;" />
      <stop
         id="stop3775-82"
         offset="1"
         style="stop-color:#787878;stop-opacity:0;" />
    </linearGradient>
    <linearGradient
       id="linearGradient2989"
       inkscape:collect="always">
      <stop
         id="stop2991"
         offset="0"
         style="stop-color:#777777;stop-opacity:1;" />
      <stop
         id="stop2993"
         offset="1"
         style="stop-color:#777777;stop-opacity:0;" />
    </linearGradient>
    <linearGradient
       id="linearGradient3776"
       inkscape:collect="always">
      <stop
         id="stop3778"
         offset="0"
         style="stop-color:#555555;stop-opacity:1;" />
      <stop
         id="stop3780"
         offset="1"
         style="stop-color:#555555;stop-opacity:0;" />
    </linearGradient>
    <filter
       inkscape:label="Glow"
       inkscape:menu="Shadows and Glows"
       inkscape:menu-tooltip="Glow of object's own color at the edges"
       id="filter3955"
       style="color-interpolation-filters:sRGB">
      <feGaussianBlur
         stdDeviation="5"
         result="result91"
         id="feGaussianBlur3957" />
      <feComposite
         in="SourceGraphic"
         operator="over"
         in2="result91"
         id="feComposite3959"
         result="result93" />
      <feGaussianBlur
         id="feGaussianBlur3148"
         result="result91"
         stdDeviation="5"
         in="SourceGraphic" />
      <feComposite
         id="feComposite3150"
         in2="result91"
         in="result93" />
    </filter>
    <linearGradient
       inkscape:collect="always"
       xlink:href="#linearGradient3868"
       id="linearGradient4334"
       x1="76.364578"
       y1="906.57959"
       x2="176.36458"
       y2="1001.5796"
       gradientUnits="userSpaceOnUse" />
  </defs>
  <sodipodi:namedview
     id="base"
     pagecolor="#ffffff"
     bordercolor="#666666"
     borderopacity="1.0"
     inkscape:pageopacity="0.0"
     inkscape:pageshadow="2"
     inkscape:zoom="5.6"
     inkscape:cx="-17.639746"
     inkscape:cy="72.52033"
     inkscape:document-units="px"
     inkscape:current-layer="g3000"
     showgrid="true"
     inkscape:window-width="1366"
     inkscape:window-height="746"
     inkscape:window-x="-8"
     inkscape:window-y="-8"
     inkscape:window-maximized="1"
     fit-margin-top="0"
     fit-margin-left="0"
     fit-margin-right="0"
     fit-margin-bottom="0"
     showguides="false"
     inkscape:guide-bbox="true">
    <inkscape:grid
       type="xygrid"
       id="grid3767"
       empspacing="5"
       visible="true"
       enabled="true"
       snapvisiblegridlinesonly="true"
       originx="150.04846"
       originy="-9.3949726" />
  </sodipodi:namedview>
  <metadata
     id="metadata7">
    <rdf:RDF>
      <cc:Work
         rdf:about="">
        <dc:format>image/svg+xml</dc:format>
        <dc:type
           rdf:resource="http://purl.org/dc/dcmitype/StillImage" />
        <dc:title />
      </cc:Work>
    </rdf:RDF>
  </metadata>
  <g
     inkscape:groupmode="layer"
     id="layer2"
     inkscape:label="Nuage"
     transform="translate(-32.981085,-798.976)">
    <g
       id="g3000"
       transform="translate(-33.335035,-96.974649)"
       style="fill:url(#linearGradient3812);fill-opacity:1">
      <path
         sodipodi:type="star"
         style="fill:url(#linearGradient4334);fill-opacity:1;fill-rule:evenodd;stroke:#10AED4;stroke-width:3.15401626;stroke-linecap:round;stroke-linejoin:round;stroke-miterlimit:4;stroke-dasharray:none;stroke-opacity:1;"
         id="path3526"
         sodipodi:sides="5"
         sodipodi:cx="127.42393"
         sodipodi:cy="959.1806"
         sodipodi:r1="53.543793"
         sodipodi:r2="26.771896"
         sodipodi:arg1="-1.5707963"
         sodipodi:arg2="-0.9424778"
         inkscape:flatsided="false"
         inkscape:rounded="0"
         inkscape:randomized="0"
         d="m 127.42393,905.63681 15.73612,31.88487 35.18705,5.11298 -25.46159,24.81891 6.01067,35.04483 -31.47225,-16.5459 -31.472256,16.5459 6.010666,-35.04483 -25.461585,-24.81891 35.187045,-5.11298 z"
         inkscape:transform-center-y="-5.1129098" />
    </g>
  </g>
</svg>
