<?xml version="1.0" encoding="UTF-8" standalone="no"?>
<!-- Created with Inkscape (http://www.inkscape.org/) -->

<svg
   xmlns:dc="http://purl.org/dc/elements/1.1/"
   xmlns:cc="http://creativecommons.org/ns#"
   xmlns:rdf="http://www.w3.org/1999/02/22-rdf-syntax-ns#"
   xmlns:svg="http://www.w3.org/2000/svg"
   xmlns="http://www.w3.org/2000/svg"
   xmlns:sodipodi="http://sodipodi.sourceforge.net/DTD/sodipodi-0.dtd"
   xmlns:inkscape="http://www.inkscape.org/namespaces/inkscape"
   width="107.823"
   height="58.335999"
   id="svg3192"
   version="1.1"
   inkscape:version="0.91 r13725"
   sodipodi:docname="ic_gesture_scroll_down - Copie.svg">
  <defs
     id="defs3194" />
  <sodipodi:namedview
     id="base"
     pagecolor="#ffffff"
     bordercolor="#666666"
     borderopacity="1.0"
     inkscape:pageopacity="0.0"
     inkscape:pageshadow="2"
     inkscape:zoom="3.959798"
     inkscape:cx="28.655848"
     inkscape:cy="22.358768"
     inkscape:document-units="px"
     inkscape:current-layer="layer1"
     showgrid="false"
     fit-margin-top="0"
     fit-margin-left="0"
     fit-margin-right="0"
     fit-margin-bottom="0"
     inkscape:window-width="1920"
     inkscape:window-height="1018"
     inkscape:window-x="-8"
     inkscape:window-y="-8"
     inkscape:window-maximized="1" />
  <metadata
     id="metadata3197">
    <rdf:RDF>
      <cc:Work
         rdf:about="">
        <dc:format>image/svg+xml</dc:format>
        <dc:type
           rdf:resource="http://purl.org/dc/dcmitype/StillImage" />
        <dc:title></dc:title>
      </cc:Work>
    </rdf:RDF>
  </metadata>
  <g
     inkscape:label="Calque 1"
     inkscape:groupmode="layer"
     id="layer1"
     transform="translate(468.19717,-440.33705)">
    <g
       transform="matrix(0,1,-1,0,-159.94017,-481.64498)"
       id="g97">
      <circle
         style="opacity:0.8;fill:#3fa9f5"
         cx="951.15002"
         cy="229.60201"
         r="29.167999"
         id="circle99" />
      <g
         style="opacity:0.8"
         id="g101">
        <g
           id="g103">
          <line
             style="fill:none;stroke:#3fa9f5;stroke-width:4;stroke-miterlimit:10"
             stroke-miterlimit="10"
             x1="950.883"
             y1="262.89499"
             x2="950.883"
             y2="298.89499"
             id="line105" />
          <g
             id="g107">
            <polygon
               style="fill:#3fa9f5"
               points="945.201,297.895 951.184,308.257 957.167,297.895 "
               id="polygon109" />
          </g>
        </g>
      </g>
    </g>
  </g>
</svg>
