<?xml version="1.0" encoding="UTF-8" standalone="no"?>
<!-- Created with Inkscape (http://www.inkscape.org/) -->

<svg
   xmlns:dc="http://purl.org/dc/elements/1.1/"
   xmlns:cc="http://creativecommons.org/ns#"
   xmlns:rdf="http://www.w3.org/1999/02/22-rdf-syntax-ns#"
   xmlns:svg="http://www.w3.org/2000/svg"
   xmlns="http://www.w3.org/2000/svg"
   xmlns:xlink="http://www.w3.org/1999/xlink"
   xmlns:sodipodi="http://sodipodi.sourceforge.net/DTD/sodipodi-0.dtd"
   xmlns:inkscape="http://www.inkscape.org/namespaces/inkscape"
   id="svg2"
   version="1.1"
   inkscape:version="0.91 r13725"
   width="77.263588"
   height="111.87124"
   sodipodi:docname="ic_help_normal.svg">
  <metadata
     id="metadata8">
    <rdf:RDF>
      <cc:Work
         rdf:about="">
        <dc:format>image/svg+xml</dc:format>
        <dc:type
           rdf:resource="http://purl.org/dc/dcmitype/StillImage" />
        <dc:title></dc:title>
      </cc:Work>
    </rdf:RDF>
  </metadata>
  <defs
     id="defs6">
    <linearGradient
       inkscape:collect="always"
       id="linearGradient3763">
      <stop
         style="stop-color:#555555;stop-opacity:1;"
         offset="0"
         id="stop3765" />
      <stop
         style="stop-color:#555555;stop-opacity:0;"
         offset="1"
         id="stop3767" />
    </linearGradient>
    <linearGradient
       inkscape:collect="always"
       id="linearGradient2989-4">
      <stop
         style="stop-color:#777777;stop-opacity:1;"
         offset="0"
         id="stop2991-0" />
      <stop
         style="stop-color:#777777;stop-opacity:0;"
         offset="1"
         id="stop2993-9" />
    </linearGradient>
    <linearGradient
       id="linearGradient3771-4">
      <stop
         style="stop-color:#777777;stop-opacity:1;"
         offset="0"
         id="stop3773-8" />
      <stop
         style="stop-color:#787878;stop-opacity:0;"
         offset="1"
         id="stop3775-8" />
    </linearGradient>
    <linearGradient
       inkscape:collect="always"
       xlink:href="#linearGradient3771-4"
       id="linearGradient3777-2"
       x1="560"
       y1="85.286827"
       x2="695"
       y2="180.28682"
       gradientUnits="userSpaceOnUse" />
    <linearGradient
       inkscape:collect="always"
       xlink:href="#linearGradient2989-4"
       id="linearGradient2995-45"
       x1="711.87061"
       y1="194.48755"
       x2="745.1825"
       y2="219.61742"
       gradientUnits="userSpaceOnUse" />
    <linearGradient
       inkscape:collect="always"
       xlink:href="#linearGradient3763"
       id="linearGradient3769"
       x1="687.52954"
       y1="779.60504"
       x2="843.52954"
       y2="779.60504"
       gradientUnits="userSpaceOnUse"
       gradientTransform="translate(-815.67956,-696.31488)" />
    <linearGradient
       inkscape:collect="always"
       xlink:href="#linearGradient3763-7"
       id="linearGradient3769-1"
       x1="687.52954"
       y1="779.60504"
       x2="843.52954"
       y2="779.60504"
       gradientUnits="userSpaceOnUse"
       gradientTransform="translate(54.999989,-35.000013)" />
    <linearGradient
       inkscape:collect="always"
       id="linearGradient3763-7">
      <stop
         style="stop-color:#555555;stop-opacity:1;"
         offset="0"
         id="stop3765-4" />
      <stop
         style="stop-color:#555555;stop-opacity:0;"
         offset="1"
         id="stop3767-0" />
    </linearGradient>
    <linearGradient
       y2="779.60504"
       x2="843.52954"
       y1="779.60504"
       x1="687.52954"
       gradientTransform="translate(-1527.6346,-76.57551)"
       gradientUnits="userSpaceOnUse"
       id="linearGradient3786"
       xlink:href="#linearGradient3763-7"
       inkscape:collect="always" />
    <linearGradient
       inkscape:collect="always"
       xlink:href="#linearGradient3763"
       id="linearGradient3806"
       gradientUnits="userSpaceOnUse"
       gradientTransform="translate(-64.99378,-29.991102)"
       x1="688.02332"
       y1="689.59613"
       x2="868.02332"
       y2="869.59613" />
    <linearGradient
       inkscape:collect="always"
       id="linearGradient3776-6">
      <stop
         style="stop-color:#555555;stop-opacity:1;"
         offset="0"
         id="stop3778-8" />
      <stop
         style="stop-color:#555555;stop-opacity:0;"
         offset="1"
         id="stop3780-8" />
    </linearGradient>
    <linearGradient
       inkscape:collect="always"
       id="linearGradient2989-2">
      <stop
         style="stop-color:#777777;stop-opacity:1;"
         offset="0"
         id="stop2991-7" />
      <stop
         style="stop-color:#777777;stop-opacity:0;"
         offset="1"
         id="stop2993-7" />
    </linearGradient>
    <linearGradient
       id="linearGradient3771-1">
      <stop
         style="stop-color:#777777;stop-opacity:1;"
         offset="0"
         id="stop3773-2" />
      <stop
         style="stop-color:#787878;stop-opacity:0;"
         offset="1"
         id="stop3775-6" />
    </linearGradient>
    <linearGradient
       inkscape:collect="always"
       xlink:href="#linearGradient3771-1"
       id="linearGradient3777-0"
       x1="560"
       y1="85.286827"
       x2="695"
       y2="180.28682"
       gradientUnits="userSpaceOnUse" />
    <linearGradient
       inkscape:collect="always"
       xlink:href="#linearGradient2989-2"
       id="linearGradient2995-4"
       x1="711.87061"
       y1="194.48755"
       x2="745.1825"
       y2="219.61742"
       gradientUnits="userSpaceOnUse" />
    <linearGradient
       inkscape:collect="always"
       xlink:href="#linearGradient3776-6"
       id="linearGradient3782-9"
       x1="622.52954"
       y1="739.60504"
       x2="738.52954"
       y2="739.60504"
       gradientUnits="userSpaceOnUse"
       gradientTransform="translate(10,-5.0000018)" />
    <linearGradient
       inkscape:collect="always"
       xlink:href="#linearGradient3776-6"
       id="linearGradient3804-4"
       gradientUnits="userSpaceOnUse"
       gradientTransform="translate(0,-35.000006)"
       x1="622.52954"
       y1="739.60504"
       x2="738.52954"
       y2="739.60504" />
    <linearGradient
       inkscape:collect="always"
       xlink:href="#linearGradient3776-6"
       id="linearGradient3808"
       gradientUnits="userSpaceOnUse"
       gradientTransform="translate(0,-35.000006)"
       x1="622.52954"
       y1="739.60504"
       x2="738.52954"
       y2="739.60504" />
    <linearGradient
       gradientTransform="matrix(-1.0775862,0,0,1.0775862,1483.8166,-59.819356)"
       gradientUnits="userSpaceOnUse"
       y2="769.60504"
       x2="743.02954"
       y1="679.60504"
       x1="683.02954"
       id="linearGradient3772"
       xlink:href="#linearGradient3771"
       inkscape:collect="always" />
    <linearGradient
       y2="739.60504"
       x2="738.52954"
       y1="739.60504"
       x1="622.52954"
       gradientTransform="translate(0,-35.000006)"
       gradientUnits="userSpaceOnUse"
       id="linearGradient3804"
       xlink:href="#linearGradient3776"
       inkscape:collect="always" />
    <linearGradient
       gradientTransform="translate(10,-5.0000018)"
       gradientUnits="userSpaceOnUse"
       y2="739.60504"
       x2="738.52954"
       y1="739.60504"
       x1="622.52954"
       id="linearGradient3782"
       xlink:href="#linearGradient3776"
       inkscape:collect="always" />
    <linearGradient
       gradientUnits="userSpaceOnUse"
       y2="219.61742"
       x2="745.1825"
       y1="194.48755"
       x1="711.87061"
       id="linearGradient2995"
       xlink:href="#linearGradient2989"
       inkscape:collect="always" />
    <linearGradient
       gradientUnits="userSpaceOnUse"
       y2="180.28682"
       x2="695"
       y1="85.286827"
       x1="560"
       id="linearGradient3777"
       xlink:href="#linearGradient3771"
       inkscape:collect="always" />
    <linearGradient
       id="linearGradient3771">
      <stop
         id="stop3773"
         offset="0"
         style="stop-color:#777777;stop-opacity:1;" />
      <stop
         id="stop3775"
         offset="1"
         style="stop-color:#787878;stop-opacity:0;" />
    </linearGradient>
    <linearGradient
       id="linearGradient2989"
       inkscape:collect="always">
      <stop
         id="stop2991"
         offset="0"
         style="stop-color:#777777;stop-opacity:1;" />
      <stop
         id="stop2993"
         offset="1"
         style="stop-color:#777777;stop-opacity:0;" />
    </linearGradient>
    <linearGradient
       id="linearGradient3776"
       inkscape:collect="always">
      <stop
         id="stop3778"
         offset="0"
         style="stop-color:#555555;stop-opacity:1;" />
      <stop
         id="stop3780"
         offset="1"
         style="stop-color:#555555;stop-opacity:0;" />
    </linearGradient>
    <linearGradient
       inkscape:collect="always"
       xlink:href="#linearGradient3776"
       id="linearGradient3858"
       x1="-0.60000002"
       y1="47.613014"
       x2="66.98632"
       y2="47.613014"
       gradientUnits="userSpaceOnUse" />
    <linearGradient
       id="linearGradient3771-1-5">
      <stop
         style="stop-color:#777777;stop-opacity:1;"
         offset="0"
         id="stop3773-7" />
      <stop
         style="stop-color:#787878;stop-opacity:0;"
         offset="1"
         id="stop3775-1" />
    </linearGradient>
    <linearGradient
       inkscape:collect="always"
       xlink:href="#linearGradient3771-1-5"
       id="linearGradient3777-1"
       x1="685"
       y1="155.28683"
       x2="565"
       y2="120.28683"
       gradientUnits="userSpaceOnUse" />
    <linearGradient
       id="linearGradient3771-4-5">
      <stop
         style="stop-color:#777777;stop-opacity:1;"
         offset="0"
         id="stop3773-0" />
      <stop
         style="stop-color:#787878;stop-opacity:0;"
         offset="1"
         id="stop3775-9" />
    </linearGradient>
    <linearGradient
       inkscape:collect="always"
       xlink:href="#linearGradient3771-4-5"
       id="linearGradient3777-4"
       x1="685"
       y1="155.28683"
       x2="565"
       y2="120.28683"
       gradientUnits="userSpaceOnUse" />
    <linearGradient
       y2="695.60498"
       x2="673.02954"
       y1="695.60498"
       x1="73.013138"
       gradientUnits="userSpaceOnUse"
       id="linearGradient3812"
       xlink:href="#linearGradient3786-7"
       inkscape:collect="always" />
    <linearGradient
       gradientTransform="translate(591.94939,-87.883271)"
       y2="695.60498"
       x2="673.02954"
       y1="695.60498"
       x1="73.013138"
       gradientUnits="userSpaceOnUse"
       id="linearGradient3808-4"
       xlink:href="#linearGradient3786-7"
       inkscape:collect="always" />
    <linearGradient
       y2="695.60498"
       x2="673.02954"
       y1="695.60498"
       x1="73.013138"
       gradientUnits="userSpaceOnUse"
       id="linearGradient3806-2"
       xlink:href="#linearGradient3786-7"
       inkscape:collect="always" />
    <linearGradient
       y2="695.60498"
       x2="673.02954"
       y1="695.60498"
       x1="73.013138"
       gradientUnits="userSpaceOnUse"
       id="linearGradient3804-8"
       xlink:href="#linearGradient3786-7"
       inkscape:collect="always" />
    <linearGradient
       y2="695.60498"
       x2="673.02954"
       y1="695.60498"
       x1="73.013138"
       gradientUnits="userSpaceOnUse"
       id="linearGradient3802"
       xlink:href="#linearGradient3786-7"
       inkscape:collect="always" />
    <linearGradient
       y2="695.60498"
       x2="673.02954"
       y1="695.60498"
       x1="73.013138"
       gradientUnits="userSpaceOnUse"
       id="linearGradient3800"
       xlink:href="#linearGradient3786-7"
       inkscape:collect="always" />
    <linearGradient
       y2="695.60498"
       x2="673.02954"
       y1="695.60498"
       x1="73.013138"
       gradientUnits="userSpaceOnUse"
       id="linearGradient3798"
       xlink:href="#linearGradient3786-7"
       inkscape:collect="always" />
    <linearGradient
       y2="695.60498"
       x2="673.02954"
       y1="695.60498"
       x1="73.013138"
       gradientUnits="userSpaceOnUse"
       id="linearGradient3796"
       xlink:href="#linearGradient3786-7"
       inkscape:collect="always" />
    <linearGradient
       y2="695.60498"
       x2="673.02954"
       y1="695.60498"
       x1="73.013138"
       gradientUnits="userSpaceOnUse"
       id="linearGradient3794"
       xlink:href="#linearGradient3786-7"
       inkscape:collect="always" />
    <linearGradient
       gradientUnits="userSpaceOnUse"
       y2="695.60498"
       x2="673.02954"
       y1="695.60498"
       x1="73.013138"
       id="linearGradient3792"
       xlink:href="#linearGradient3786-7"
       inkscape:collect="always" />
    <linearGradient
       gradientUnits="userSpaceOnUse"
       y2="120.28683"
       x2="565"
       y1="155.28683"
       x1="685"
       id="linearGradient3777-8"
       xlink:href="#linearGradient3771-40"
       inkscape:collect="always" />
    <linearGradient
       id="linearGradient3771-40">
      <stop
         id="stop3773-9"
         offset="0"
         style="stop-color:#6f6f6f;stop-opacity:1;" />
      <stop
         id="stop3775-4"
         offset="1"
         style="stop-color:#a6a6a6;stop-opacity:1;" />
    </linearGradient>
    <linearGradient
       id="linearGradient3786-7"
       inkscape:collect="always">
      <stop
         id="stop3788"
         offset="0"
         style="stop-color:#000000;stop-opacity:1;" />
      <stop
         id="stop3790"
         offset="1"
         style="stop-color:#000000;stop-opacity:0;" />
    </linearGradient>
    <linearGradient
       inkscape:collect="always"
       xlink:href="#linearGradient3868"
       id="linearGradient3891"
       gradientUnits="userSpaceOnUse"
       x1="2.8284271"
       y1="2.9570835"
       x2="102.53049"
       y2="102.48236"
       gradientTransform="translate(273.97396,528.70519)" />
    <linearGradient
       id="linearGradient3868">
      <stop
         id="stop3870"
         offset="0"
         style="stop-color:#10AED4;stop-opacity:1;" />
      <stop
         id="stop3872"
         offset="1"
         style="stop-color:#96DCEB;stop-opacity:1;" />
    </linearGradient>
    <linearGradient
       gradientUnits="userSpaceOnUse"
       y2="102.48236"
       x2="102.53049"
       y1="2.9570835"
       x1="2.8284271"
       id="linearGradient3874"
       xlink:href="#linearGradient3868"
       inkscape:collect="always" />
    <linearGradient
       inkscape:collect="always"
       id="linearGradient3763-2">
      <stop
         style="stop-color:#555555;stop-opacity:1;"
         offset="0"
         id="stop3765-1" />
      <stop
         style="stop-color:#555555;stop-opacity:0;"
         offset="1"
         id="stop3767-6" />
    </linearGradient>
    <linearGradient
       inkscape:collect="always"
       id="linearGradient2989-4-2">
      <stop
         style="stop-color:#777777;stop-opacity:1;"
         offset="0"
         id="stop2991-0-3" />
      <stop
         style="stop-color:#777777;stop-opacity:0;"
         offset="1"
         id="stop2993-9-2" />
    </linearGradient>
    <linearGradient
       id="linearGradient3771-4-6">
      <stop
         style="stop-color:#777777;stop-opacity:1;"
         offset="0"
         id="stop3773-8-1" />
      <stop
         style="stop-color:#787878;stop-opacity:0;"
         offset="1"
         id="stop3775-8-4" />
    </linearGradient>
    <linearGradient
       inkscape:collect="always"
       xlink:href="#linearGradient3771-4-6"
       id="linearGradient3777-2-7"
       x1="560"
       y1="85.286827"
       x2="695"
       y2="180.28682"
       gradientUnits="userSpaceOnUse" />
    <linearGradient
       inkscape:collect="always"
       xlink:href="#linearGradient2989-4-2"
       id="linearGradient2995-4-2"
       x1="711.87061"
       y1="194.48755"
       x2="745.1825"
       y2="219.61742"
       gradientUnits="userSpaceOnUse" />
    <linearGradient
       inkscape:collect="always"
       xlink:href="#linearGradient3763-2"
       id="linearGradient3769-5"
       x1="687.52954"
       y1="779.60504"
       x2="843.52954"
       y2="779.60504"
       gradientUnits="userSpaceOnUse"
       gradientTransform="translate(-815.67956,-696.31488)" />
    <linearGradient
       inkscape:collect="always"
       xlink:href="#linearGradient3763-7-1"
       id="linearGradient3769-1-1"
       x1="687.52954"
       y1="779.60504"
       x2="843.52954"
       y2="779.60504"
       gradientUnits="userSpaceOnUse"
       gradientTransform="translate(54.999989,-35.000013)" />
    <linearGradient
       inkscape:collect="always"
       id="linearGradient3763-7-1">
      <stop
         style="stop-color:#555555;stop-opacity:1;"
         offset="0"
         id="stop3765-4-7" />
      <stop
         style="stop-color:#555555;stop-opacity:0;"
         offset="1"
         id="stop3767-0-1" />
    </linearGradient>
    <linearGradient
       y2="779.60504"
       x2="843.52954"
       y1="779.60504"
       x1="687.52954"
       gradientTransform="translate(-1527.6346,-76.57551)"
       gradientUnits="userSpaceOnUse"
       id="linearGradient3786-5"
       xlink:href="#linearGradient3763-7-1"
       inkscape:collect="always" />
    <linearGradient
       gradientUnits="userSpaceOnUse"
       y2="219.61742"
       x2="745.1825"
       y1="194.48755"
       x1="711.87061"
       id="linearGradient2995-5"
       xlink:href="#linearGradient2989-7"
       inkscape:collect="always" />
    <linearGradient
       gradientUnits="userSpaceOnUse"
       y2="180.28682"
       x2="695"
       y1="85.286827"
       x1="560"
       id="linearGradient3777-24"
       xlink:href="#linearGradient3771-9"
       inkscape:collect="always" />
    <linearGradient
       id="linearGradient3771-9">
      <stop
         id="stop3773-4"
         offset="0"
         style="stop-color:#777777;stop-opacity:1;" />
      <stop
         id="stop3775-88"
         offset="1"
         style="stop-color:#787878;stop-opacity:0;" />
    </linearGradient>
    <linearGradient
       id="linearGradient2989-7"
       inkscape:collect="always">
      <stop
         id="stop2991-4"
         offset="0"
         style="stop-color:#777777;stop-opacity:1;" />
      <stop
         id="stop2993-0"
         offset="1"
         style="stop-color:#777777;stop-opacity:0;" />
    </linearGradient>
    <linearGradient
       inkscape:collect="always"
       xlink:href="#linearGradient3868"
       id="linearGradient3910"
       x1="6.7414842"
       y1="4.738791"
       x2="71.759354"
       y2="101.51654"
       gradientUnits="userSpaceOnUse"
       gradientTransform="translate(1.0800002,3.0800042)" />
    <filter
       inkscape:label="Glow"
       inkscape:menu="Shadows and Glows"
       inkscape:menu-tooltip="Glow of object's own color at the edges"
       id="filter3955"
       style="color-interpolation-filters:sRGB">
      <feGaussianBlur
         stdDeviation="5"
         result="result91"
         id="feGaussianBlur3957" />
      <feComposite
         in="SourceGraphic"
         operator="over"
         in2="result91"
         id="feComposite3959"
         result="result93" />
      <feGaussianBlur
         id="feGaussianBlur3148"
         result="result91"
         stdDeviation="5"
         in="SourceGraphic" />
      <feComposite
         id="feComposite3150"
         in2="result91"
         in="result93" />
    </filter>
  </defs>
  <sodipodi:namedview
     pagecolor="#000000"
     bordercolor="#666666"
     borderopacity="1"
     objecttolerance="10"
     gridtolerance="10"
     guidetolerance="10"
     inkscape:pageopacity="0"
     inkscape:pageshadow="2"
     inkscape:window-width="1920"
     inkscape:window-height="1018"
     id="namedview4"
     showgrid="false"
     fit-margin-top="0"
     fit-margin-left="0"
     fit-margin-right="0"
     fit-margin-bottom="0"
     inkscape:zoom="3.337544"
     inkscape:cx="-3.2323858"
     inkscape:cy="74.915412"
     inkscape:window-x="-8"
     inkscape:window-y="-8"
     inkscape:window-maximized="1"
     inkscape:current-layer="svg2" />
  <text
     xml:space="preserve"
     style="font-style:normal;font-weight:normal;font-size:137.35748291px;line-height:125%;font-family:Sans;letter-spacing:0px;word-spacing:0px;fill:url(#linearGradient3910);fill-opacity:1;stroke:#10AED4;stroke-width:3.20000005;stroke-miterlimit:4;stroke-dasharray:none;stroke-opacity:1;"
     x="4.6277666"
     y="102.54863"
     id="text2983"
     sodipodi:linespacing="125%"><tspan
       sodipodi:role="line"
       id="tspan2985"
       x="4.6277666"
       y="102.54863"
       style="font-style:normal;font-variant:normal;font-weight:normal;font-stretch:normal;font-family:'Franklin Gothic Demi';-inkscape-font-specification:'Franklin Gothic Demi';fill:url(#linearGradient3910);fill-opacity:1;stroke:#10AED4;stroke-width:3.20000005;stroke-miterlimit:4;stroke-dasharray:none;stroke-opacity:1">?</tspan></text>
</svg>
