<?xml version="1.0" encoding="UTF-8" standalone="no"?>
<!-- Created with Inkscape (http://www.inkscape.org/) -->

<svg
   xmlns:dc="http://purl.org/dc/elements/1.1/"
   xmlns:cc="http://creativecommons.org/ns#"
   xmlns:rdf="http://www.w3.org/1999/02/22-rdf-syntax-ns#"
   xmlns:svg="http://www.w3.org/2000/svg"
   xmlns="http://www.w3.org/2000/svg"
   xmlns:sodipodi="http://sodipodi.sourceforge.net/DTD/sodipodi-0.dtd"
   xmlns:inkscape="http://www.inkscape.org/namespaces/inkscape"
   width="230.6667"
   height="213.33333"
   id="svg2"
   version="1.1"
   inkscape:version="0.92.2 (5c3e80d, 2017-08-06)"
   sodipodi:docname="ic_highlight.svg"
   inkscape:export-filename="F:\git\AdoreDieu\originaux\bible.png"
   inkscape:export-xdpi="90"
   inkscape:export-ydpi="90">
  <defs
     id="defs4" />
  <sodipodi:namedview
     id="base"
     pagecolor="#ff85ff"
     bordercolor="#666666"
     borderopacity="1.0"
     inkscape:pageopacity="0"
     inkscape:pageshadow="2"
     inkscape:zoom="1.4142136"
     inkscape:cx="280.49487"
     inkscape:cy="51.933926"
     inkscape:document-units="px"
     inkscape:current-layer="layer2"
     showgrid="true"
     inkscape:window-width="1680"
     inkscape:window-height="987"
     inkscape:window-x="-8"
     inkscape:window-y="-8"
     inkscape:window-maximized="1"
     fit-margin-top="0"
     fit-margin-left="0"
     fit-margin-right="0"
     fit-margin-bottom="0"
     showguides="true"
     inkscape:guide-bbox="true">
    <inkscape:grid
       type="xygrid"
       id="grid2999"
       empspacing="5"
       visible="true"
       enabled="true"
       snapvisiblegridlinesonly="true"
       originx="783.3625"
       originy="-513.36253"
       spacingx="1"
       spacingy="1" />
  </sodipodi:namedview>
  <metadata
     id="metadata7">
    <rdf:RDF>
      <cc:Work
         rdf:about="">
        <dc:format>image/svg+xml</dc:format>
        <dc:type
           rdf:resource="http://purl.org/dc/dcmitype/StillImage" />
        <dc:title></dc:title>
      </cc:Work>
    </rdf:RDF>
  </metadata>
  <g
     inkscape:groupmode="layer"
     id="layer2"
     inkscape:label="Bible"
     transform="translate(783.3625,-325.66629)">
    <g
       id="g2994"
       transform="translate(131,59)"
       style="fill:#ffffff;fill-opacity:1;stroke:none" />
    <path
       style="fill:#ffffff;fill-opacity:1;stroke:none"
       d=""
       id="path2992"
       inkscape:connector-curvature="0" />
    <g
       id="g2986"
       transform="translate(137.5,39)"
       style="fill:#ffffff;fill-opacity:1;stroke:none" />
    <path
       style="fill:#ffffff;fill-opacity:1;stroke:none"
       d=""
       id="path2984"
       inkscape:connector-curvature="0" />
    <path
       inkscape:connector-curvature="0"
       id="path4538"
       d="m -777.6086,537.65698 c -3.201,-1.28969 -5.7539,-5.19399 -5.7539,-8.79972 0,-1.27471 8.5319,-10.92288 18.9597,-21.44036 l 18.9597,-19.12269 15.0365,14.99376 15.0364,14.99377 -10.2982,10.35893 -10.2982,10.35895 -19.3646,-0.0845 c -10.6505,-0.0465 -20.6754,-0.61264 -22.2774,-1.25812 z m 60.9128,0.22065 c 0,-0.61709 3.8481,-4.81709 8.5513,-9.33333 l 8.5512,-8.21135 h 70.11543 70.1154 v 9.33334 9.33333 h -78.66666 c -43.26667,0 -78.66667,-0.50489 -78.66667,-1.12199 z m 0.3922,-48.6035 c -14.5843,-14.58424 -16.3922,-16.89568 -16.3922,-20.9576 0,-4.22427 3.6103,-8.1808 48.3088,-52.94118 26.5698,-26.60665 48.92733,-48.37573 49.68333,-48.37573 1.77318,0 40.67454,38.93275 40.67454,40.70735 0,0.73796 -21.76908,23.08069 -48.37577,49.65053 -44.7604,44.69845 -48.7169,48.30879 -52.9411,48.30879 -4.062,0 -6.3734,-1.80791 -20.9576,-16.39216 z M -600,372.36215 c -12.14816,-12.16846 -19.44087,-20.43042 -18.65415,-21.13347 0.71043,-0.63487 9.2267,-6.64613 18.92506,-13.35835 11.62397,-8.04495 18.86509,-12.20404 21.24761,-12.20404 5.16205,0 25.78568,20.59581 25.78568,25.7509 0,2.35753 -4.35704,9.83851 -12.76324,21.91429 -7.01979,10.08414 -13.17542,18.48669 -13.67918,18.67231 -0.50376,0.18563 -9.89157,-8.65311 -20.86178,-19.64164 z"
       style="fill:#ffffff;stroke-width:1.33333325" />
  </g>
</svg>
