<?xml version="1.0" encoding="UTF-8" standalone="no"?>
<!-- Created with Inkscape (http://www.inkscape.org/) -->

<svg
   xmlns:dc="http://purl.org/dc/elements/1.1/"
   xmlns:cc="http://creativecommons.org/ns#"
   xmlns:rdf="http://www.w3.org/1999/02/22-rdf-syntax-ns#"
   xmlns:svg="http://www.w3.org/2000/svg"
   xmlns="http://www.w3.org/2000/svg"
   xmlns:sodipodi="http://sodipodi.sourceforge.net/DTD/sodipodi-0.dtd"
   xmlns:inkscape="http://www.inkscape.org/namespaces/inkscape"
   width="134.46733"
   height="128.27838"
   id="svg2"
   version="1.1"
   inkscape:version="0.48.5 r10040"
   sodipodi:docname="ic_home.svg">
  <defs
     id="defs4" />
  <sodipodi:namedview
     id="base"
     pagecolor="#ff8bff"
     bordercolor="#666666"
     borderopacity="1.0"
     inkscape:pageopacity="1"
     inkscape:pageshadow="2"
     inkscape:zoom="2.8"
     inkscape:cx="144.30771"
     inkscape:cy="32.56748"
     inkscape:document-units="px"
     inkscape:current-layer="g2996"
     showgrid="false"
     fit-margin-top="1"
     fit-margin-left="1"
     fit-margin-right="1"
     fit-margin-bottom="1"
     inkscape:window-width="1680"
     inkscape:window-height="1028"
     inkscape:window-x="1672"
     inkscape:window-y="-8"
     inkscape:window-maximized="1" />
  <metadata
     id="metadata7">
    <rdf:RDF>
      <cc:Work
         rdf:about="">
        <dc:format>image/svg+xml</dc:format>
        <dc:type
           rdf:resource="http://purl.org/dc/dcmitype/StillImage" />
        <dc:title />
      </cc:Work>
    </rdf:RDF>
  </metadata>
  <g
     inkscape:label="Calque 1"
     inkscape:groupmode="layer"
     id="layer1"
     transform="translate(208.17561,-359.45468)">
    <g
       id="g2996"
       transform="translate(620.23367,71.720826)">
      <g
         id="g2997"
         transform="translate(934.64287,-79.642857)">
        <g
           id="g3019"
           transform="matrix(0.16761132,0,0,0.16761132,-1796.5474,394.14966)"
           style="fill:#ffffff;fill-opacity:1">
          <path
             transform="translate(-1773.8883,368.75181)"
             inkscape:connector-curvature="0"
             id="path3015"
             d="m 2112.3257,229.97204 c -11.2325,-1.44667 -23.9075,-11.17969 -29.6684,-22.78205 -2.9717,-5.98482 -2.9964,-6.18052 -3.6953,-29.25863 -0.387,-12.77843 -0.7453,-87.213227 -0.7964,-165.41066 l -0.093,-142.17716 41.2953,-42.17568 c 61.7162,-63.03188 233.155,-233.61513 239.5271,-238.33168 3.0557,-2.26182 7.3114,-4.67458 9.4571,-5.36169 6.0562,-1.93938 13.9317,-0.86467 19.0264,2.59638 4.6582,3.16456 112.7418,110.2507 219.0039,216.98282 l 65.1548,65.44305 0,164.82391 0,164.82391 -3.9635,7.41924 c -6.5857,12.32789 -15.4596,19.74673 -27.3109,22.83281 -5.2284,1.36146 -17.3246,1.55462 -91.9239,1.46785 -47.2468,-0.055 -88.4034,-0.39586 -91.4591,-0.75761 l -5.5559,-0.65771 -0.6542,-5.3601 c -0.3598,-2.94806 -0.9748,-54.5416 -1.3667,-114.65232 l -0.7126,-109.29220719 -2.5512,-4.54568641 c -4.0183,-7.1598304 -9.2916,-12.0794644 -16.9101,-15.7759054 l -7.0426,-3.416993 -48.1019,0 -48.102,0 -6.2204,3.108391 c -7.7,3.847721 -14.3865,10.405349 -17.699,17.3578754 l -2.5216,5.2926235 -0.3859,111.6218521 c -0.2811,81.31515 -0.7,112.19816 -1.5431,113.74444 -0.9344,1.71378 -2.4792,2.24741 -8.0207,2.77074 -9.331,0.88119 -170.0874,0.58192 -177.1664,-0.32981 l 0,0 z"
             style="fill:#ffffff;fill-opacity:1;stroke:none" />
          <path
             transform="translate(-1773.8883,368.75181)"
             inkscape:connector-curvature="0"
             id="path3017"
             d="m 1997.6498,-111.09062 c -6.0431,-2.14321 -11.6444,-7.40914 -15.0679,-14.16577 -2.5385,-5.01006 -2.9799,-7.0047 -2.8745,-12.99 0.068,-3.88908 0.8372,-8.76733 1.7084,-10.84055 1.0443,-2.48511 13.7203,-16.0806 37.2026,-39.90102 63.9071,-64.82751 286.7503,-287.85853 306.7609,-307.01951 17.0412,-16.31757 20.5012,-19.15827 27.2741,-22.39212 7.4061,-3.53617 8.316,-3.71984 20.1148,-4.06019 15.4046,-0.44437 23.2801,1.59238 32.2384,8.33742 3.2513,2.448 40.665,38.82147 83.1416,80.82992 42.4766,42.00846 77.7057,76.22146 78.2868,76.02889 0.659,-0.21833 1.3297,-8.30368 1.7821,-21.48123 0.8198,-23.87997 1.5919,-27.17761 7.8803,-33.65733 6.1599,-6.34745 11.357,-8.62651 19.6786,-8.62965 11.0022,-0.004 20.4632,5.52011 25.4467,14.85842 2.0744,3.8872 3.1159,28.98904 3.2557,78.46764 l 0.087,30.75395 68.496,68.74608 c 45.5989,45.76539 69.9117,70.89504 72.731,75.17464 4.0462,6.14198 4.2345,6.77244 4.2251,14.14214 -0.01,6.00321 -0.5402,8.8335 -2.4018,12.76433 -4.8015,10.13898 -14.5141,16.64414 -24.8625,16.65202 -8.9831,0.007 -11.9995,-1.39111 -22.2427,-10.30842 -5.2674,-4.58557 -84.7273,-83.11991 -176.5775,-174.52074 -91.8503,-91.40085 -167.8571,-166.326 -168.9039,-166.50036 -1.3763,-0.22922 -46.045,43.69244 -161.2991,158.60146 -182.7645,182.2173 -188.8522,188.18624 -194.5852,190.78925 -5.1005,2.31587 -15.4345,2.47007 -21.4949,0.32073 l 0,0 z"
             style="fill:#ffffff;fill-opacity:1;stroke:none" />
        </g>
      </g>
    </g>
  </g>
</svg>
