<?xml version="1.0" encoding="UTF-8" standalone="no"?>
<!-- Created with Inkscape (http://www.inkscape.org/) -->

<svg
   xmlns:dc="http://purl.org/dc/elements/1.1/"
   xmlns:cc="http://creativecommons.org/ns#"
   xmlns:rdf="http://www.w3.org/1999/02/22-rdf-syntax-ns#"
   xmlns:svg="http://www.w3.org/2000/svg"
   xmlns="http://www.w3.org/2000/svg"
   xmlns:xlink="http://www.w3.org/1999/xlink"
   xmlns:sodipodi="http://sodipodi.sourceforge.net/DTD/sodipodi-0.dtd"
   xmlns:inkscape="http://www.inkscape.org/namespaces/inkscape"
   width="81.186203"
   height="119.97931"
   id="svg2"
   version="1.1"
   inkscape:version="0.48.5 r10040"
   sodipodi:docname="ic_play_selected.svg"
   inkscape:export-filename="F:\git\AdoreDieu\AdoreDieuapp\src\main\res\drawable-xhdpi\ic_pensee.png"
   inkscape:export-xdpi="47.610001"
   inkscape:export-ydpi="47.610001">
  <defs
     id="defs4">
    <linearGradient
       inkscape:collect="always"
       id="linearGradient3776">
      <stop
         style="stop-color:#555555;stop-opacity:1;"
         offset="0"
         id="stop3778" />
      <stop
         style="stop-color:#555555;stop-opacity:0;"
         offset="1"
         id="stop3780" />
    </linearGradient>
    <linearGradient
       inkscape:collect="always"
       id="linearGradient2989">
      <stop
         style="stop-color:#777777;stop-opacity:1;"
         offset="0"
         id="stop2991" />
      <stop
         style="stop-color:#777777;stop-opacity:0;"
         offset="1"
         id="stop2993" />
    </linearGradient>
    <linearGradient
       id="linearGradient3771">
      <stop
         style="stop-color:#777777;stop-opacity:1;"
         offset="0"
         id="stop3773" />
      <stop
         style="stop-color:#787878;stop-opacity:0;"
         offset="1"
         id="stop3775" />
    </linearGradient>
    <linearGradient
       inkscape:collect="always"
       xlink:href="#linearGradient3771"
       id="linearGradient3777"
       x1="560"
       y1="85.286827"
       x2="695"
       y2="180.28682"
       gradientUnits="userSpaceOnUse" />
    <linearGradient
       inkscape:collect="always"
       xlink:href="#linearGradient2989"
       id="linearGradient2995"
       x1="711.87061"
       y1="194.48755"
       x2="745.1825"
       y2="219.61742"
       gradientUnits="userSpaceOnUse" />
    <linearGradient
       inkscape:collect="always"
       xlink:href="#linearGradient3776"
       id="linearGradient3782"
       x1="622.52954"
       y1="739.60504"
       x2="738.52954"
       y2="739.60504"
       gradientUnits="userSpaceOnUse"
       gradientTransform="translate(10,-5.0000018)" />
    <linearGradient
       inkscape:collect="always"
       xlink:href="#linearGradient3776"
       id="linearGradient3804"
       gradientUnits="userSpaceOnUse"
       gradientTransform="translate(0,-35.000006)"
       x1="622.52954"
       y1="739.60504"
       x2="738.52954"
       y2="739.60504" />
    <linearGradient
       y2="739.60504"
       x2="738.52954"
       y1="739.60504"
       x1="622.52954"
       gradientTransform="translate(0,-35.000006)"
       gradientUnits="userSpaceOnUse"
       id="linearGradient3808"
       xlink:href="#linearGradient3776-6"
       inkscape:collect="always" />
    <linearGradient
       y2="739.60504"
       x2="738.52954"
       y1="739.60504"
       x1="622.52954"
       gradientTransform="translate(0,-35.000006)"
       gradientUnits="userSpaceOnUse"
       id="linearGradient3804-4"
       xlink:href="#linearGradient3776-6"
       inkscape:collect="always" />
    <linearGradient
       gradientTransform="translate(10,-5.0000018)"
       gradientUnits="userSpaceOnUse"
       y2="739.60504"
       x2="738.52954"
       y1="739.60504"
       x1="622.52954"
       id="linearGradient3782-9"
       xlink:href="#linearGradient3776-6"
       inkscape:collect="always" />
    <linearGradient
       gradientUnits="userSpaceOnUse"
       y2="219.61742"
       x2="745.1825"
       y1="194.48755"
       x1="711.87061"
       id="linearGradient2995-4"
       xlink:href="#linearGradient2989-2"
       inkscape:collect="always" />
    <linearGradient
       gradientUnits="userSpaceOnUse"
       y2="180.28682"
       x2="695"
       y1="85.286827"
       x1="560"
       id="linearGradient3777-0"
       xlink:href="#linearGradient3771-1"
       inkscape:collect="always" />
    <linearGradient
       id="linearGradient3771-1">
      <stop
         id="stop3773-2"
         offset="0"
         style="stop-color:#777777;stop-opacity:1;" />
      <stop
         id="stop3775-6"
         offset="1"
         style="stop-color:#787878;stop-opacity:0;" />
    </linearGradient>
    <linearGradient
       id="linearGradient2989-2"
       inkscape:collect="always">
      <stop
         id="stop2991-7"
         offset="0"
         style="stop-color:#777777;stop-opacity:1;" />
      <stop
         id="stop2993-7"
         offset="1"
         style="stop-color:#777777;stop-opacity:0;" />
    </linearGradient>
    <linearGradient
       id="linearGradient3776-6"
       inkscape:collect="always">
      <stop
         id="stop3778-8"
         offset="0"
         style="stop-color:#555555;stop-opacity:1;" />
      <stop
         id="stop3780-8"
         offset="1"
         style="stop-color:#555555;stop-opacity:0;" />
    </linearGradient>
    <linearGradient
       inkscape:collect="always"
       id="linearGradient3776-5">
      <stop
         style="stop-color:#555555;stop-opacity:1;"
         offset="0"
         id="stop3778-2" />
      <stop
         style="stop-color:#555555;stop-opacity:0;"
         offset="1"
         id="stop3780-7" />
    </linearGradient>
    <linearGradient
       inkscape:collect="always"
       id="linearGradient2989-4">
      <stop
         style="stop-color:#777777;stop-opacity:1;"
         offset="0"
         id="stop2991-0" />
      <stop
         style="stop-color:#777777;stop-opacity:0;"
         offset="1"
         id="stop2993-9" />
    </linearGradient>
    <linearGradient
       id="linearGradient3771-4">
      <stop
         style="stop-color:#777777;stop-opacity:1;"
         offset="0"
         id="stop3773-8" />
      <stop
         style="stop-color:#787878;stop-opacity:0;"
         offset="1"
         id="stop3775-8" />
    </linearGradient>
    <linearGradient
       inkscape:collect="always"
       xlink:href="#linearGradient3771-4"
       id="linearGradient3777-2"
       x1="560"
       y1="85.286827"
       x2="695"
       y2="180.28682"
       gradientUnits="userSpaceOnUse" />
    <linearGradient
       inkscape:collect="always"
       xlink:href="#linearGradient2989-4"
       id="linearGradient2995-4-1"
       x1="711.87061"
       y1="194.48755"
       x2="745.1825"
       y2="219.61742"
       gradientUnits="userSpaceOnUse" />
    <linearGradient
       inkscape:collect="always"
       xlink:href="#linearGradient3776-5"
       id="linearGradient3782-1"
       x1="622.52954"
       y1="739.60504"
       x2="738.52954"
       y2="739.60504"
       gradientUnits="userSpaceOnUse"
       gradientTransform="translate(10,-5.0000018)" />
    <linearGradient
       inkscape:collect="always"
       xlink:href="#linearGradient3776-5"
       id="linearGradient3804-7"
       gradientUnits="userSpaceOnUse"
       gradientTransform="translate(0,-35.000006)"
       x1="622.52954"
       y1="739.60504"
       x2="738.52954"
       y2="739.60504" />
    <linearGradient
       inkscape:collect="always"
       xlink:href="#linearGradient3776-5"
       id="linearGradient3808-1"
       gradientUnits="userSpaceOnUse"
       gradientTransform="translate(0,-35.000006)"
       x1="623.95099"
       y1="672.60675"
       x2="738.95099"
       y2="812.60675" />
    <linearGradient
       gradientUnits="userSpaceOnUse"
       y2="219.61742"
       x2="745.1825"
       y1="194.48755"
       x1="711.87061"
       id="linearGradient2995-5"
       xlink:href="#linearGradient2989-40"
       inkscape:collect="always" />
    <linearGradient
       gradientUnits="userSpaceOnUse"
       y2="180.28682"
       x2="695"
       y1="85.286827"
       x1="560"
       id="linearGradient3777-5"
       xlink:href="#linearGradient3771-8"
       inkscape:collect="always" />
    <linearGradient
       id="linearGradient3771-8">
      <stop
         id="stop3773-82"
         offset="0"
         style="stop-color:#777777;stop-opacity:1;" />
      <stop
         id="stop3775-4"
         offset="1"
         style="stop-color:#787878;stop-opacity:0;" />
    </linearGradient>
    <linearGradient
       id="linearGradient2989-40"
       inkscape:collect="always">
      <stop
         id="stop2991-9"
         offset="0"
         style="stop-color:#777777;stop-opacity:1;" />
      <stop
         id="stop2993-4"
         offset="1"
         style="stop-color:#777777;stop-opacity:0;" />
    </linearGradient>
    <linearGradient
       inkscape:collect="always"
       xlink:href="#linearGradient3868"
       id="linearGradient4024"
       x1="618.02954"
       y1="714.60498"
       x2="683.02954"
       y2="764.60498"
       gradientUnits="userSpaceOnUse" />
    <linearGradient
       id="linearGradient3868">
      <stop
         style="stop-color:#10AED4;stop-opacity:1;"
         offset="0"
         id="stop3870" />
      <stop
         style="stop-color:#96DCEB;stop-opacity:1;"
         offset="1"
         id="stop3872" />
    </linearGradient>
    <linearGradient
       gradientTransform="translate(-40,-10.000005)"
       y2="764.60498"
       x2="683.02954"
       y1="714.60498"
       x1="618.02954"
       gradientUnits="userSpaceOnUse"
       id="linearGradient4044"
       xlink:href="#linearGradient3868"
       inkscape:collect="always" />
    <filter
       inkscape:label="Glow"
       inkscape:menu="Shadows and Glows"
       inkscape:menu-tooltip="Glow of object's own color at the edges"
       color-interpolation-filters="sRGB"
       id="filter3955">
      <feGaussianBlur
         stdDeviation="5"
         result="result91"
         id="feGaussianBlur3957" />
      <feComposite
         in="SourceGraphic"
         operator="over"
         in2="result91"
         id="feComposite3959"
         result="result93" />
      <feGaussianBlur
         id="feGaussianBlur3148"
         result="result91"
         stdDeviation="5"
         in="SourceGraphic" />
      <feComposite
         id="feComposite3150"
         in2="result91"
         in="result93" />
    </filter>
  </defs>
  <sodipodi:namedview
     id="base"
     pagecolor="#ffffff"
     bordercolor="#666666"
     borderopacity="1.0"
     inkscape:pageopacity="0.0"
     inkscape:pageshadow="2"
     inkscape:zoom="2.8"
     inkscape:cx="-142.22889"
     inkscape:cy="83.262488"
     inkscape:document-units="px"
     inkscape:current-layer="layer2"
     showgrid="true"
     inkscape:window-width="1920"
     inkscape:window-height="1018"
     inkscape:window-x="-8"
     inkscape:window-y="-8"
     inkscape:window-maximized="1"
     fit-margin-top="0"
     fit-margin-left="0"
     fit-margin-right="0"
     fit-margin-bottom="0"
     showguides="true"
     inkscape:guide-bbox="true">
    <inkscape:grid
       type="xygrid"
       id="grid3767"
       empspacing="5"
       visible="true"
       enabled="true"
       snapvisiblegridlinesonly="true"
       originx="-386.8431px"
       originy="-113.61032px" />
  </sodipodi:namedview>
  <metadata
     id="metadata7">
    <rdf:RDF>
      <cc:Work
         rdf:about="">
        <dc:format>image/svg+xml</dc:format>
        <dc:type
           rdf:resource="http://purl.org/dc/dcmitype/StillImage" />
        <dc:title />
      </cc:Work>
    </rdf:RDF>
  </metadata>
  <g
     inkscape:groupmode="layer"
     id="layer2"
     inkscape:label="Nuage"
     transform="translate(-569.87263,-691.01537)">
    <path
       sodipodi:nodetypes="ccccc"
       inkscape:connector-curvature="0"
       id="path3802-9"
       d="m 578.13815,799.49641 64.65517,-48.49138 -64.65517,-48.49138 0,48.49138 z"
       style="fill:url(#linearGradient4044);fill-opacity:1;stroke:#10AED4;stroke-width:3;stroke-linecap:round;stroke-linejoin:round;stroke-miterlimit:4;stroke-opacity:1;stroke-dasharray:none;filter:url(#filter3955)" />
  </g>
</svg>
