<?xml version="1.0" encoding="UTF-8" standalone="no"?>
<!-- Created with Inkscape (http://www.inkscape.org/) -->

<svg
   xmlns:dc="http://purl.org/dc/elements/1.1/"
   xmlns:cc="http://creativecommons.org/ns#"
   xmlns:rdf="http://www.w3.org/1999/02/22-rdf-syntax-ns#"
   xmlns:svg="http://www.w3.org/2000/svg"
   xmlns="http://www.w3.org/2000/svg"
   xmlns:xlink="http://www.w3.org/1999/xlink"
   xmlns:sodipodi="http://sodipodi.sourceforge.net/DTD/sodipodi-0.dtd"
   xmlns:inkscape="http://www.inkscape.org/namespaces/inkscape"
   width="120.00001"
   height="120.00001"
   id="svg2"
   version="1.1"
   inkscape:version="0.91 r13725"
   sodipodi:docname="ic_stop_normal.svg"
   inkscape:export-filename="F:\git\AdoreDieu\AdoreDieuapp\src\main\res\drawable-xhdpi\ic_pensee.png"
   inkscape:export-xdpi="47.610001"
   inkscape:export-ydpi="47.610001">
  <defs
     id="defs4">
    <linearGradient
       inkscape:collect="always"
       id="linearGradient3776">
      <stop
         style="stop-color:#555555;stop-opacity:1;"
         offset="0"
         id="stop3778" />
      <stop
         style="stop-color:#555555;stop-opacity:0;"
         offset="1"
         id="stop3780" />
    </linearGradient>
    <linearGradient
       inkscape:collect="always"
       id="linearGradient2989">
      <stop
         style="stop-color:#777777;stop-opacity:1;"
         offset="0"
         id="stop2991" />
      <stop
         style="stop-color:#777777;stop-opacity:0;"
         offset="1"
         id="stop2993" />
    </linearGradient>
    <linearGradient
       id="linearGradient3771">
      <stop
         style="stop-color:#777777;stop-opacity:1;"
         offset="0"
         id="stop3773" />
      <stop
         style="stop-color:#787878;stop-opacity:0;"
         offset="1"
         id="stop3775" />
    </linearGradient>
    <linearGradient
       inkscape:collect="always"
       xlink:href="#linearGradient3771"
       id="linearGradient3777"
       x1="560"
       y1="85.286827"
       x2="695"
       y2="180.28682"
       gradientUnits="userSpaceOnUse" />
    <linearGradient
       inkscape:collect="always"
       xlink:href="#linearGradient2989"
       id="linearGradient2995"
       x1="711.87061"
       y1="194.48755"
       x2="745.1825"
       y2="219.61742"
       gradientUnits="userSpaceOnUse" />
    <linearGradient
       inkscape:collect="always"
       xlink:href="#linearGradient3776"
       id="linearGradient3782"
       x1="622.52954"
       y1="739.60504"
       x2="738.52954"
       y2="739.60504"
       gradientUnits="userSpaceOnUse"
       gradientTransform="translate(10,-5.0000018)" />
    <linearGradient
       inkscape:collect="always"
       xlink:href="#linearGradient3776"
       id="linearGradient3804"
       gradientUnits="userSpaceOnUse"
       gradientTransform="translate(0,-35.000006)"
       x1="622.52954"
       y1="739.60504"
       x2="738.52954"
       y2="739.60504" />
    <linearGradient
       y2="739.60504"
       x2="738.52954"
       y1="739.60504"
       x1="622.52954"
       gradientTransform="translate(0,-35.000006)"
       gradientUnits="userSpaceOnUse"
       id="linearGradient3808"
       xlink:href="#linearGradient3776-6"
       inkscape:collect="always" />
    <linearGradient
       y2="739.60504"
       x2="738.52954"
       y1="739.60504"
       x1="622.52954"
       gradientTransform="translate(0,-35.000006)"
       gradientUnits="userSpaceOnUse"
       id="linearGradient3804-4"
       xlink:href="#linearGradient3776-6"
       inkscape:collect="always" />
    <linearGradient
       gradientTransform="translate(10,-5.0000018)"
       gradientUnits="userSpaceOnUse"
       y2="739.60504"
       x2="738.52954"
       y1="739.60504"
       x1="622.52954"
       id="linearGradient3782-9"
       xlink:href="#linearGradient3776-6"
       inkscape:collect="always" />
    <linearGradient
       gradientUnits="userSpaceOnUse"
       y2="219.61742"
       x2="745.1825"
       y1="194.48755"
       x1="711.87061"
       id="linearGradient2995-4"
       xlink:href="#linearGradient2989-2"
       inkscape:collect="always" />
    <linearGradient
       gradientUnits="userSpaceOnUse"
       y2="180.28682"
       x2="695"
       y1="85.286827"
       x1="560"
       id="linearGradient3777-0"
       xlink:href="#linearGradient3771-1"
       inkscape:collect="always" />
    <linearGradient
       id="linearGradient3771-1">
      <stop
         id="stop3773-2"
         offset="0"
         style="stop-color:#777777;stop-opacity:1;" />
      <stop
         id="stop3775-6"
         offset="1"
         style="stop-color:#787878;stop-opacity:0;" />
    </linearGradient>
    <linearGradient
       id="linearGradient2989-2"
       inkscape:collect="always">
      <stop
         id="stop2991-7"
         offset="0"
         style="stop-color:#777777;stop-opacity:1;" />
      <stop
         id="stop2993-7"
         offset="1"
         style="stop-color:#777777;stop-opacity:0;" />
    </linearGradient>
    <linearGradient
       id="linearGradient3776-6"
       inkscape:collect="always">
      <stop
         id="stop3778-8"
         offset="0"
         style="stop-color:#555555;stop-opacity:1;" />
      <stop
         id="stop3780-8"
         offset="1"
         style="stop-color:#555555;stop-opacity:0;" />
    </linearGradient>
    <linearGradient
       inkscape:collect="always"
       xlink:href="#linearGradient3771-7"
       id="linearGradient3772-1"
       x1="683.02954"
       y1="679.60504"
       x2="743.02954"
       y2="769.60504"
       gradientUnits="userSpaceOnUse"
       gradientTransform="matrix(1.0775862,0,0,1.0775862,-52.88505,-59.819356)" />
    <linearGradient
       id="linearGradient3771-7">
      <stop
         style="stop-color:#777777;stop-opacity:1;"
         offset="0"
         id="stop3773-4" />
      <stop
         style="stop-color:#787878;stop-opacity:0;"
         offset="1"
         id="stop3775-0" />
    </linearGradient>
    <linearGradient
       gradientUnits="userSpaceOnUse"
       y2="101.51654"
       x2="71.759354"
       y1="4.738791"
       x1="6.7414842"
       id="linearGradient3910"
       xlink:href="#linearGradient3868"
       inkscape:collect="always"
       gradientTransform="translate(528.71368,711.71048)" />
    <linearGradient
       inkscape:collect="always"
       id="linearGradient2989-7">
      <stop
         style="stop-color:#777777;stop-opacity:1;"
         offset="0"
         id="stop2991-4" />
      <stop
         style="stop-color:#777777;stop-opacity:0;"
         offset="1"
         id="stop2993-0" />
    </linearGradient>
    <linearGradient
       id="linearGradient3771-9">
      <stop
         style="stop-color:#777777;stop-opacity:1;"
         offset="0"
         id="stop3773-4-7" />
      <stop
         style="stop-color:#787878;stop-opacity:0;"
         offset="1"
         id="stop3775-88" />
    </linearGradient>
    <linearGradient
       inkscape:collect="always"
       xlink:href="#linearGradient3771-9"
       id="linearGradient3777-24"
       x1="560"
       y1="85.286827"
       x2="695"
       y2="180.28682"
       gradientUnits="userSpaceOnUse" />
    <linearGradient
       inkscape:collect="always"
       xlink:href="#linearGradient2989-7"
       id="linearGradient2995-5"
       x1="711.87061"
       y1="194.48755"
       x2="745.1825"
       y2="219.61742"
       gradientUnits="userSpaceOnUse" />
    <linearGradient
       inkscape:collect="always"
       xlink:href="#linearGradient3763-7-1"
       id="linearGradient3786-5"
       gradientUnits="userSpaceOnUse"
       gradientTransform="translate(-1527.6346,-76.57551)"
       x1="687.52954"
       y1="779.60504"
       x2="843.52954"
       y2="779.60504" />
    <linearGradient
       id="linearGradient3763-7-1"
       inkscape:collect="always">
      <stop
         id="stop3765-4-7"
         offset="0"
         style="stop-color:#555555;stop-opacity:1;" />
      <stop
         id="stop3767-0-1"
         offset="1"
         style="stop-color:#555555;stop-opacity:0;" />
    </linearGradient>
    <linearGradient
       gradientTransform="translate(54.999989,-35.000013)"
       gradientUnits="userSpaceOnUse"
       y2="779.60504"
       x2="843.52954"
       y1="779.60504"
       x1="687.52954"
       id="linearGradient3769-1-1"
       xlink:href="#linearGradient3763-7-1"
       inkscape:collect="always" />
    <linearGradient
       gradientTransform="translate(-815.67956,-696.31488)"
       gradientUnits="userSpaceOnUse"
       y2="779.60504"
       x2="843.52954"
       y1="779.60504"
       x1="687.52954"
       id="linearGradient3769-5"
       xlink:href="#linearGradient3763-2"
       inkscape:collect="always" />
    <linearGradient
       gradientUnits="userSpaceOnUse"
       y2="219.61742"
       x2="745.1825"
       y1="194.48755"
       x1="711.87061"
       id="linearGradient2995-4-2"
       xlink:href="#linearGradient2989-4-2"
       inkscape:collect="always" />
    <linearGradient
       gradientUnits="userSpaceOnUse"
       y2="180.28682"
       x2="695"
       y1="85.286827"
       x1="560"
       id="linearGradient3777-2-7"
       xlink:href="#linearGradient3771-4-6"
       inkscape:collect="always" />
    <linearGradient
       id="linearGradient3771-4-6">
      <stop
         id="stop3773-8-1"
         offset="0"
         style="stop-color:#777777;stop-opacity:1;" />
      <stop
         id="stop3775-8-4"
         offset="1"
         style="stop-color:#787878;stop-opacity:0;" />
    </linearGradient>
    <linearGradient
       id="linearGradient2989-4-2"
       inkscape:collect="always">
      <stop
         id="stop2991-0-3"
         offset="0"
         style="stop-color:#777777;stop-opacity:1;" />
      <stop
         id="stop2993-9-2"
         offset="1"
         style="stop-color:#777777;stop-opacity:0;" />
    </linearGradient>
    <linearGradient
       id="linearGradient3763-2"
       inkscape:collect="always">
      <stop
         id="stop3765-1"
         offset="0"
         style="stop-color:#555555;stop-opacity:1;" />
      <stop
         id="stop3767-6"
         offset="1"
         style="stop-color:#555555;stop-opacity:0;" />
    </linearGradient>
    <linearGradient
       inkscape:collect="always"
       xlink:href="#linearGradient3868"
       id="linearGradient3874"
       x1="2.8284271"
       y1="2.9570835"
       x2="102.53049"
       y2="102.48236"
       gradientUnits="userSpaceOnUse" />
    <linearGradient
       id="linearGradient3868">
      <stop
         style="stop-color:#10AED4;stop-opacity:1;"
         offset="0"
         id="stop3870" />
      <stop
         style="stop-color:#96DCEB;stop-opacity:1;"
         offset="1"
         id="stop3872" />
    </linearGradient>
    <linearGradient
       gradientTransform="translate(273.97396,528.70519)"
       y2="102.48236"
       x2="102.53049"
       y1="2.9570835"
       x1="2.8284271"
       gradientUnits="userSpaceOnUse"
       id="linearGradient3891"
       xlink:href="#linearGradient3868"
       inkscape:collect="always" />
    <linearGradient
       inkscape:collect="always"
       id="linearGradient3786-7">
      <stop
         style="stop-color:#000000;stop-opacity:1;"
         offset="0"
         id="stop3788" />
      <stop
         style="stop-color:#000000;stop-opacity:0;"
         offset="1"
         id="stop3790" />
    </linearGradient>
    <linearGradient
       id="linearGradient3771-40">
      <stop
         style="stop-color:#6f6f6f;stop-opacity:1;"
         offset="0"
         id="stop3773-9" />
      <stop
         style="stop-color:#a6a6a6;stop-opacity:1;"
         offset="1"
         id="stop3775-4" />
    </linearGradient>
    <linearGradient
       inkscape:collect="always"
       xlink:href="#linearGradient3771-40"
       id="linearGradient3777-8"
       x1="685"
       y1="155.28683"
       x2="565"
       y2="120.28683"
       gradientUnits="userSpaceOnUse" />
    <linearGradient
       inkscape:collect="always"
       xlink:href="#linearGradient3786-7"
       id="linearGradient3792"
       x1="73.013138"
       y1="695.60498"
       x2="673.02954"
       y2="695.60498"
       gradientUnits="userSpaceOnUse" />
    <linearGradient
       inkscape:collect="always"
       xlink:href="#linearGradient3786-7"
       id="linearGradient3794"
       gradientUnits="userSpaceOnUse"
       x1="73.013138"
       y1="695.60498"
       x2="673.02954"
       y2="695.60498" />
    <linearGradient
       inkscape:collect="always"
       xlink:href="#linearGradient3786-7"
       id="linearGradient3796"
       gradientUnits="userSpaceOnUse"
       x1="73.013138"
       y1="695.60498"
       x2="673.02954"
       y2="695.60498" />
    <linearGradient
       inkscape:collect="always"
       xlink:href="#linearGradient3786-7"
       id="linearGradient3798"
       gradientUnits="userSpaceOnUse"
       x1="73.013138"
       y1="695.60498"
       x2="673.02954"
       y2="695.60498" />
    <linearGradient
       inkscape:collect="always"
       xlink:href="#linearGradient3786-7"
       id="linearGradient3800"
       gradientUnits="userSpaceOnUse"
       x1="73.013138"
       y1="695.60498"
       x2="673.02954"
       y2="695.60498" />
    <linearGradient
       inkscape:collect="always"
       xlink:href="#linearGradient3786-7"
       id="linearGradient3802"
       gradientUnits="userSpaceOnUse"
       x1="73.013138"
       y1="695.60498"
       x2="673.02954"
       y2="695.60498" />
    <linearGradient
       inkscape:collect="always"
       xlink:href="#linearGradient3786-7"
       id="linearGradient3804-8"
       gradientUnits="userSpaceOnUse"
       x1="73.013138"
       y1="695.60498"
       x2="673.02954"
       y2="695.60498" />
    <linearGradient
       inkscape:collect="always"
       xlink:href="#linearGradient3786-7"
       id="linearGradient3806-2"
       gradientUnits="userSpaceOnUse"
       x1="73.013138"
       y1="695.60498"
       x2="673.02954"
       y2="695.60498" />
    <linearGradient
       inkscape:collect="always"
       xlink:href="#linearGradient3786-7"
       id="linearGradient3808-4"
       gradientUnits="userSpaceOnUse"
       x1="73.013138"
       y1="695.60498"
       x2="673.02954"
       y2="695.60498"
       gradientTransform="translate(591.94939,-87.883271)" />
    <linearGradient
       inkscape:collect="always"
       xlink:href="#linearGradient3786-7"
       id="linearGradient3812"
       gradientUnits="userSpaceOnUse"
       x1="73.013138"
       y1="695.60498"
       x2="673.02954"
       y2="695.60498" />
    <linearGradient
       gradientUnits="userSpaceOnUse"
       y2="120.28683"
       x2="565"
       y1="155.28683"
       x1="685"
       id="linearGradient3777-4"
       xlink:href="#linearGradient3771-4-5"
       inkscape:collect="always" />
    <linearGradient
       id="linearGradient3771-4-5">
      <stop
         id="stop3773-0"
         offset="0"
         style="stop-color:#777777;stop-opacity:1;" />
      <stop
         id="stop3775-9"
         offset="1"
         style="stop-color:#787878;stop-opacity:0;" />
    </linearGradient>
    <linearGradient
       gradientUnits="userSpaceOnUse"
       y2="120.28683"
       x2="565"
       y1="155.28683"
       x1="685"
       id="linearGradient3777-1"
       xlink:href="#linearGradient3771-1-5"
       inkscape:collect="always" />
    <linearGradient
       id="linearGradient3771-1-5">
      <stop
         id="stop3773-7"
         offset="0"
         style="stop-color:#777777;stop-opacity:1;" />
      <stop
         id="stop3775-1"
         offset="1"
         style="stop-color:#787878;stop-opacity:0;" />
    </linearGradient>
    <linearGradient
       gradientUnits="userSpaceOnUse"
       y2="47.613014"
       x2="66.98632"
       y1="47.613014"
       x1="-0.60000002"
       id="linearGradient3858"
       xlink:href="#linearGradient3776-1"
       inkscape:collect="always" />
    <linearGradient
       inkscape:collect="always"
       id="linearGradient3776-1">
      <stop
         style="stop-color:#555555;stop-opacity:1;"
         offset="0"
         id="stop3778-6" />
      <stop
         style="stop-color:#555555;stop-opacity:0;"
         offset="1"
         id="stop3780-85" />
    </linearGradient>
    <linearGradient
       inkscape:collect="always"
       id="linearGradient2989-3">
      <stop
         style="stop-color:#777777;stop-opacity:1;"
         offset="0"
         id="stop2991-2" />
      <stop
         style="stop-color:#777777;stop-opacity:0;"
         offset="1"
         id="stop2993-2" />
    </linearGradient>
    <linearGradient
       id="linearGradient3771-6">
      <stop
         style="stop-color:#777777;stop-opacity:1;"
         offset="0"
         id="stop3773-1" />
      <stop
         style="stop-color:#787878;stop-opacity:0;"
         offset="1"
         id="stop3775-42" />
    </linearGradient>
    <linearGradient
       inkscape:collect="always"
       xlink:href="#linearGradient3771-6"
       id="linearGradient3777-7"
       x1="560"
       y1="85.286827"
       x2="695"
       y2="180.28682"
       gradientUnits="userSpaceOnUse" />
    <linearGradient
       inkscape:collect="always"
       xlink:href="#linearGradient2989-3"
       id="linearGradient2995-2"
       x1="711.87061"
       y1="194.48755"
       x2="745.1825"
       y2="219.61742"
       gradientUnits="userSpaceOnUse" />
    <linearGradient
       inkscape:collect="always"
       xlink:href="#linearGradient3776-1"
       id="linearGradient3782-5"
       x1="622.52954"
       y1="739.60504"
       x2="738.52954"
       y2="739.60504"
       gradientUnits="userSpaceOnUse"
       gradientTransform="translate(10,-5.0000018)" />
    <linearGradient
       inkscape:collect="always"
       xlink:href="#linearGradient3776-1"
       id="linearGradient3804-1"
       gradientUnits="userSpaceOnUse"
       gradientTransform="translate(0,-35.000006)"
       x1="622.52954"
       y1="739.60504"
       x2="738.52954"
       y2="739.60504" />
    <linearGradient
       inkscape:collect="always"
       xlink:href="#linearGradient3771-6"
       id="linearGradient3772"
       x1="683.02954"
       y1="679.60504"
       x2="743.02954"
       y2="769.60504"
       gradientUnits="userSpaceOnUse"
       gradientTransform="matrix(-1.0775862,0,0,1.0775862,1483.8166,-59.819356)" />
    <linearGradient
       y2="739.60504"
       x2="738.52954"
       y1="739.60504"
       x1="622.52954"
       gradientTransform="translate(0,-35.000006)"
       gradientUnits="userSpaceOnUse"
       id="linearGradient3808-1"
       xlink:href="#linearGradient3776-6-7"
       inkscape:collect="always" />
    <linearGradient
       y2="739.60504"
       x2="738.52954"
       y1="739.60504"
       x1="622.52954"
       gradientTransform="translate(0,-35.000006)"
       gradientUnits="userSpaceOnUse"
       id="linearGradient3804-4-7"
       xlink:href="#linearGradient3776-6-7"
       inkscape:collect="always" />
    <linearGradient
       gradientTransform="translate(10,-5.0000018)"
       gradientUnits="userSpaceOnUse"
       y2="739.60504"
       x2="738.52954"
       y1="739.60504"
       x1="622.52954"
       id="linearGradient3782-9-1"
       xlink:href="#linearGradient3776-6-7"
       inkscape:collect="always" />
    <linearGradient
       gradientUnits="userSpaceOnUse"
       y2="219.61742"
       x2="745.1825"
       y1="194.48755"
       x1="711.87061"
       id="linearGradient2995-4-5"
       xlink:href="#linearGradient2989-2-9"
       inkscape:collect="always" />
    <linearGradient
       gradientUnits="userSpaceOnUse"
       y2="180.28682"
       x2="695"
       y1="85.286827"
       x1="560"
       id="linearGradient3777-0-5"
       xlink:href="#linearGradient3771-1-8"
       inkscape:collect="always" />
    <linearGradient
       id="linearGradient3771-1-8">
      <stop
         id="stop3773-2-2"
         offset="0"
         style="stop-color:#777777;stop-opacity:1;" />
      <stop
         id="stop3775-6-4"
         offset="1"
         style="stop-color:#787878;stop-opacity:0;" />
    </linearGradient>
    <linearGradient
       id="linearGradient2989-2-9"
       inkscape:collect="always">
      <stop
         id="stop2991-7-4"
         offset="0"
         style="stop-color:#777777;stop-opacity:1;" />
      <stop
         id="stop2993-7-8"
         offset="1"
         style="stop-color:#777777;stop-opacity:0;" />
    </linearGradient>
    <linearGradient
       id="linearGradient3776-6-7"
       inkscape:collect="always">
      <stop
         id="stop3778-8-4"
         offset="0"
         style="stop-color:#555555;stop-opacity:1;" />
      <stop
         id="stop3780-8-0"
         offset="1"
         style="stop-color:#555555;stop-opacity:0;" />
    </linearGradient>
    <linearGradient
       y2="869.59613"
       x2="868.02332"
       y1="689.59613"
       x1="688.02332"
       gradientTransform="translate(-64.99378,-29.991102)"
       gradientUnits="userSpaceOnUse"
       id="linearGradient3806"
       xlink:href="#linearGradient3763"
       inkscape:collect="always" />
    <linearGradient
       inkscape:collect="always"
       xlink:href="#linearGradient3763-7"
       id="linearGradient3786"
       gradientUnits="userSpaceOnUse"
       gradientTransform="translate(-1527.6346,-76.57551)"
       x1="687.52954"
       y1="779.60504"
       x2="843.52954"
       y2="779.60504" />
    <linearGradient
       id="linearGradient3763-7"
       inkscape:collect="always">
      <stop
         id="stop3765-4"
         offset="0"
         style="stop-color:#555555;stop-opacity:1;" />
      <stop
         id="stop3767-0"
         offset="1"
         style="stop-color:#555555;stop-opacity:0;" />
    </linearGradient>
    <linearGradient
       gradientTransform="translate(54.999989,-35.000013)"
       gradientUnits="userSpaceOnUse"
       y2="779.60504"
       x2="843.52954"
       y1="779.60504"
       x1="687.52954"
       id="linearGradient3769-1"
       xlink:href="#linearGradient3763-7"
       inkscape:collect="always" />
    <linearGradient
       gradientTransform="translate(-815.67956,-696.31488)"
       gradientUnits="userSpaceOnUse"
       y2="779.60504"
       x2="843.52954"
       y1="779.60504"
       x1="687.52954"
       id="linearGradient3769"
       xlink:href="#linearGradient3763"
       inkscape:collect="always" />
    <linearGradient
       gradientUnits="userSpaceOnUse"
       y2="219.61742"
       x2="745.1825"
       y1="194.48755"
       x1="711.87061"
       id="linearGradient2995-45"
       xlink:href="#linearGradient2989-4"
       inkscape:collect="always" />
    <linearGradient
       gradientUnits="userSpaceOnUse"
       y2="180.28682"
       x2="695"
       y1="85.286827"
       x1="560"
       id="linearGradient3777-2"
       xlink:href="#linearGradient3771-4"
       inkscape:collect="always" />
    <linearGradient
       id="linearGradient3771-4">
      <stop
         id="stop3773-8"
         offset="0"
         style="stop-color:#777777;stop-opacity:1;" />
      <stop
         id="stop3775-8"
         offset="1"
         style="stop-color:#787878;stop-opacity:0;" />
    </linearGradient>
    <linearGradient
       id="linearGradient2989-4"
       inkscape:collect="always">
      <stop
         id="stop2991-0"
         offset="0"
         style="stop-color:#777777;stop-opacity:1;" />
      <stop
         id="stop2993-9"
         offset="1"
         style="stop-color:#777777;stop-opacity:0;" />
    </linearGradient>
    <linearGradient
       id="linearGradient3763"
       inkscape:collect="always">
      <stop
         id="stop3765"
         offset="0"
         style="stop-color:#555555;stop-opacity:1;" />
      <stop
         id="stop3767"
         offset="1"
         style="stop-color:#555555;stop-opacity:0;" />
    </linearGradient>
    <linearGradient
       inkscape:collect="always"
       xlink:href="#linearGradient3868"
       id="linearGradient4024"
       x1="641.36969"
       y1="755.46539"
       x2="741.36969"
       y2="855.46539"
       gradientUnits="userSpaceOnUse"
       gradientTransform="translate(-133.34014,-35.860415)" />
    <filter
       inkscape:label="Glow"
       inkscape:menu="Shadows and Glows"
       inkscape:menu-tooltip="Glow of object's own color at the edges"
       id="filter3955"
       style="color-interpolation-filters:sRGB">
      <feGaussianBlur
         stdDeviation="5"
         result="result91"
         id="feGaussianBlur3957" />
      <feComposite
         in="SourceGraphic"
         operator="over"
         in2="result91"
         id="feComposite3959"
         result="result93" />
      <feGaussianBlur
         id="feGaussianBlur3148"
         result="result91"
         stdDeviation="5"
         in="SourceGraphic" />
      <feComposite
         id="feComposite3150"
         in2="result91"
         in="result93" />
    </filter>
  </defs>
  <sodipodi:namedview
     id="base"
     pagecolor="#ffffff"
     bordercolor="#666666"
     borderopacity="1.0"
     inkscape:pageopacity="0.0"
     inkscape:pageshadow="2"
     inkscape:zoom="2.8"
     inkscape:cx="10.720166"
     inkscape:cy="23.657208"
     inkscape:document-units="px"
     inkscape:current-layer="layer2"
     showgrid="true"
     inkscape:window-width="1920"
     inkscape:window-height="1018"
     inkscape:window-x="-8"
     inkscape:window-y="-8"
     inkscape:window-maximized="1"
     fit-margin-top="0"
     fit-margin-left="0"
     fit-margin-right="0"
     fit-margin-bottom="0"
     showguides="true"
     inkscape:guide-bbox="true"
     inkscape:snap-grids="true">
    <inkscape:grid
       type="xygrid"
       id="grid3767"
       empspacing="5"
       visible="true"
       enabled="true"
       snapvisiblegridlinesonly="true"
       originx="-316.8431"
       originy="-93.610302" />
  </sodipodi:namedview>
  <metadata
     id="metadata7">
    <rdf:RDF>
      <cc:Work
         rdf:about="">
        <dc:format>image/svg+xml</dc:format>
        <dc:type
           rdf:resource="http://purl.org/dc/dcmitype/StillImage" />
        <dc:title />
      </cc:Work>
    </rdf:RDF>
  </metadata>
  <g
     inkscape:groupmode="layer"
     id="layer2"
     inkscape:label="Nuage"
     transform="translate(-499.87263,-710.99468)">
    <path
       sodipodi:nodetypes="ccccc"
       inkscape:connector-curvature="0"
       id="path3802-9"
       d="m 509.87263,720.99468 100,0 0,100 -100,0 z"
       style="fill:url(#linearGradient4024);fill-opacity:1;stroke:#10AED4;stroke-width:3;stroke-linecap:round;stroke-linejoin:round;stroke-miterlimit:4;stroke-dasharray:none;stroke-opacity:1;" />
  </g>
</svg>
