<?xml version="1.0" encoding="UTF-8" standalone="no"?>
<!-- Created with Inkscape (http://www.inkscape.org/) -->

<svg
   xmlns:dc="http://purl.org/dc/elements/1.1/"
   xmlns:cc="http://creativecommons.org/ns#"
   xmlns:rdf="http://www.w3.org/1999/02/22-rdf-syntax-ns#"
   xmlns:svg="http://www.w3.org/2000/svg"
   xmlns="http://www.w3.org/2000/svg"
   xmlns:xlink="http://www.w3.org/1999/xlink"
   xmlns:sodipodi="http://sodipodi.sourceforge.net/DTD/sodipodi-0.dtd"
   xmlns:inkscape="http://www.inkscape.org/namespaces/inkscape"
   width="161.60017"
   height="123.6"
   id="svg2"
   version="1.1"
   inkscape:version="0.48.5 r10040"
   sodipodi:docname="ic_random_selected.svg"
   inkscape:export-filename="F:\git\AdoreDieu\AdoreDieuapp\src\main\res\drawable-xhdpi\ic_pensee.png"
   inkscape:export-xdpi="47.610001"
   inkscape:export-ydpi="47.610001">
  <defs
     id="defs4">
    <linearGradient
       inkscape:collect="always"
       id="linearGradient3776">
      <stop
         style="stop-color:#555555;stop-opacity:1;"
         offset="0"
         id="stop3778" />
      <stop
         style="stop-color:#555555;stop-opacity:0;"
         offset="1"
         id="stop3780" />
    </linearGradient>
    <linearGradient
       inkscape:collect="always"
       id="linearGradient2989">
      <stop
         style="stop-color:#777777;stop-opacity:1;"
         offset="0"
         id="stop2991" />
      <stop
         style="stop-color:#777777;stop-opacity:0;"
         offset="1"
         id="stop2993" />
    </linearGradient>
    <linearGradient
       id="linearGradient3771">
      <stop
         style="stop-color:#777777;stop-opacity:1;"
         offset="0"
         id="stop3773" />
      <stop
         style="stop-color:#787878;stop-opacity:0;"
         offset="1"
         id="stop3775" />
    </linearGradient>
    <linearGradient
       inkscape:collect="always"
       xlink:href="#linearGradient3771"
       id="linearGradient3777"
       x1="560"
       y1="85.286827"
       x2="695"
       y2="180.28682"
       gradientUnits="userSpaceOnUse" />
    <linearGradient
       inkscape:collect="always"
       xlink:href="#linearGradient2989"
       id="linearGradient2995"
       x1="711.87061"
       y1="194.48755"
       x2="745.1825"
       y2="219.61742"
       gradientUnits="userSpaceOnUse" />
    <linearGradient
       inkscape:collect="always"
       xlink:href="#linearGradient3776"
       id="linearGradient3782"
       x1="622.52954"
       y1="739.60504"
       x2="738.52954"
       y2="739.60504"
       gradientUnits="userSpaceOnUse"
       gradientTransform="translate(10,-5.0000018)" />
    <linearGradient
       inkscape:collect="always"
       xlink:href="#linearGradient3776"
       id="linearGradient3804"
       gradientUnits="userSpaceOnUse"
       gradientTransform="translate(0,-35.000006)"
       x1="622.52954"
       y1="739.60504"
       x2="738.52954"
       y2="739.60504" />
    <linearGradient
       y2="739.60504"
       x2="738.52954"
       y1="739.60504"
       x1="622.52954"
       gradientTransform="translate(0,-35.000006)"
       gradientUnits="userSpaceOnUse"
       id="linearGradient3808"
       xlink:href="#linearGradient3776-6"
       inkscape:collect="always" />
    <linearGradient
       y2="739.60504"
       x2="738.52954"
       y1="739.60504"
       x1="622.52954"
       gradientTransform="translate(0,-35.000006)"
       gradientUnits="userSpaceOnUse"
       id="linearGradient3804-4"
       xlink:href="#linearGradient3776-6"
       inkscape:collect="always" />
    <linearGradient
       gradientTransform="translate(10,-5.0000018)"
       gradientUnits="userSpaceOnUse"
       y2="739.60504"
       x2="738.52954"
       y1="739.60504"
       x1="622.52954"
       id="linearGradient3782-9"
       xlink:href="#linearGradient3776-6"
       inkscape:collect="always" />
    <linearGradient
       gradientUnits="userSpaceOnUse"
       y2="219.61742"
       x2="745.1825"
       y1="194.48755"
       x1="711.87061"
       id="linearGradient2995-4"
       xlink:href="#linearGradient2989-2"
       inkscape:collect="always" />
    <linearGradient
       gradientUnits="userSpaceOnUse"
       y2="180.28682"
       x2="695"
       y1="85.286827"
       x1="560"
       id="linearGradient3777-0"
       xlink:href="#linearGradient3771-1"
       inkscape:collect="always" />
    <linearGradient
       id="linearGradient3771-1">
      <stop
         id="stop3773-2"
         offset="0"
         style="stop-color:#777777;stop-opacity:1;" />
      <stop
         id="stop3775-6"
         offset="1"
         style="stop-color:#787878;stop-opacity:0;" />
    </linearGradient>
    <linearGradient
       id="linearGradient2989-2"
       inkscape:collect="always">
      <stop
         id="stop2991-7"
         offset="0"
         style="stop-color:#777777;stop-opacity:1;" />
      <stop
         id="stop2993-7"
         offset="1"
         style="stop-color:#777777;stop-opacity:0;" />
    </linearGradient>
    <linearGradient
       id="linearGradient3776-6"
       inkscape:collect="always">
      <stop
         id="stop3778-8"
         offset="0"
         style="stop-color:#555555;stop-opacity:1;" />
      <stop
         id="stop3780-8"
         offset="1"
         style="stop-color:#555555;stop-opacity:0;" />
    </linearGradient>
    <linearGradient
       inkscape:collect="always"
       xlink:href="#linearGradient3771-7"
       id="linearGradient3772-1"
       x1="683.02954"
       y1="679.60504"
       x2="743.02954"
       y2="769.60504"
       gradientUnits="userSpaceOnUse"
       gradientTransform="matrix(1.0775862,0,0,1.0775862,-52.88505,-59.819356)" />
    <linearGradient
       id="linearGradient3771-7">
      <stop
         style="stop-color:#777777;stop-opacity:1;"
         offset="0"
         id="stop3773-4" />
      <stop
         style="stop-color:#787878;stop-opacity:0;"
         offset="1"
         id="stop3775-0" />
    </linearGradient>
    <linearGradient
       gradientUnits="userSpaceOnUse"
       y2="101.51654"
       x2="71.759354"
       y1="4.738791"
       x1="6.7414842"
       id="linearGradient3910"
       xlink:href="#linearGradient3868"
       inkscape:collect="always"
       gradientTransform="translate(528.71368,711.71048)" />
    <linearGradient
       inkscape:collect="always"
       id="linearGradient2989-7">
      <stop
         style="stop-color:#777777;stop-opacity:1;"
         offset="0"
         id="stop2991-4" />
      <stop
         style="stop-color:#777777;stop-opacity:0;"
         offset="1"
         id="stop2993-0" />
    </linearGradient>
    <linearGradient
       id="linearGradient3771-9">
      <stop
         style="stop-color:#777777;stop-opacity:1;"
         offset="0"
         id="stop3773-4-7" />
      <stop
         style="stop-color:#787878;stop-opacity:0;"
         offset="1"
         id="stop3775-88" />
    </linearGradient>
    <linearGradient
       inkscape:collect="always"
       xlink:href="#linearGradient3771-9"
       id="linearGradient3777-24"
       x1="560"
       y1="85.286827"
       x2="695"
       y2="180.28682"
       gradientUnits="userSpaceOnUse" />
    <linearGradient
       inkscape:collect="always"
       xlink:href="#linearGradient2989-7"
       id="linearGradient2995-5"
       x1="711.87061"
       y1="194.48755"
       x2="745.1825"
       y2="219.61742"
       gradientUnits="userSpaceOnUse" />
    <linearGradient
       inkscape:collect="always"
       xlink:href="#linearGradient3763-7-1"
       id="linearGradient3786-5"
       gradientUnits="userSpaceOnUse"
       gradientTransform="translate(-1527.6346,-76.57551)"
       x1="687.52954"
       y1="779.60504"
       x2="843.52954"
       y2="779.60504" />
    <linearGradient
       id="linearGradient3763-7-1"
       inkscape:collect="always">
      <stop
         id="stop3765-4-7"
         offset="0"
         style="stop-color:#555555;stop-opacity:1;" />
      <stop
         id="stop3767-0-1"
         offset="1"
         style="stop-color:#555555;stop-opacity:0;" />
    </linearGradient>
    <linearGradient
       gradientTransform="translate(54.999989,-35.000013)"
       gradientUnits="userSpaceOnUse"
       y2="779.60504"
       x2="843.52954"
       y1="779.60504"
       x1="687.52954"
       id="linearGradient3769-1-1"
       xlink:href="#linearGradient3763-7-1"
       inkscape:collect="always" />
    <linearGradient
       gradientTransform="translate(-815.67956,-696.31488)"
       gradientUnits="userSpaceOnUse"
       y2="779.60504"
       x2="843.52954"
       y1="779.60504"
       x1="687.52954"
       id="linearGradient3769-5"
       xlink:href="#linearGradient3763-2"
       inkscape:collect="always" />
    <linearGradient
       gradientUnits="userSpaceOnUse"
       y2="219.61742"
       x2="745.1825"
       y1="194.48755"
       x1="711.87061"
       id="linearGradient2995-4-2"
       xlink:href="#linearGradient2989-4-2"
       inkscape:collect="always" />
    <linearGradient
       gradientUnits="userSpaceOnUse"
       y2="180.28682"
       x2="695"
       y1="85.286827"
       x1="560"
       id="linearGradient3777-2-7"
       xlink:href="#linearGradient3771-4-6"
       inkscape:collect="always" />
    <linearGradient
       id="linearGradient3771-4-6">
      <stop
         id="stop3773-8-1"
         offset="0"
         style="stop-color:#777777;stop-opacity:1;" />
      <stop
         id="stop3775-8-4"
         offset="1"
         style="stop-color:#787878;stop-opacity:0;" />
    </linearGradient>
    <linearGradient
       id="linearGradient2989-4-2"
       inkscape:collect="always">
      <stop
         id="stop2991-0-3"
         offset="0"
         style="stop-color:#777777;stop-opacity:1;" />
      <stop
         id="stop2993-9-2"
         offset="1"
         style="stop-color:#777777;stop-opacity:0;" />
    </linearGradient>
    <linearGradient
       id="linearGradient3763-2"
       inkscape:collect="always">
      <stop
         id="stop3765-1"
         offset="0"
         style="stop-color:#555555;stop-opacity:1;" />
      <stop
         id="stop3767-6"
         offset="1"
         style="stop-color:#555555;stop-opacity:0;" />
    </linearGradient>
    <linearGradient
       inkscape:collect="always"
       xlink:href="#linearGradient3868"
       id="linearGradient3874"
       x1="2.8284271"
       y1="2.9570835"
       x2="102.53049"
       y2="102.48236"
       gradientUnits="userSpaceOnUse" />
    <linearGradient
       id="linearGradient3868">
      <stop
         style="stop-color:#10AED4;stop-opacity:1;"
         offset="0"
         id="stop3870" />
      <stop
         style="stop-color:#96DCEB;stop-opacity:1;"
         offset="1"
         id="stop3872" />
    </linearGradient>
    <linearGradient
       gradientTransform="translate(273.97396,528.70519)"
       y2="102.48236"
       x2="102.53049"
       y1="2.9570835"
       x1="2.8284271"
       gradientUnits="userSpaceOnUse"
       id="linearGradient3891"
       xlink:href="#linearGradient3868"
       inkscape:collect="always" />
    <linearGradient
       inkscape:collect="always"
       id="linearGradient3786-7">
      <stop
         style="stop-color:#000000;stop-opacity:1;"
         offset="0"
         id="stop3788" />
      <stop
         style="stop-color:#000000;stop-opacity:0;"
         offset="1"
         id="stop3790" />
    </linearGradient>
    <linearGradient
       id="linearGradient3771-40">
      <stop
         style="stop-color:#6f6f6f;stop-opacity:1;"
         offset="0"
         id="stop3773-9" />
      <stop
         style="stop-color:#a6a6a6;stop-opacity:1;"
         offset="1"
         id="stop3775-4" />
    </linearGradient>
    <linearGradient
       inkscape:collect="always"
       xlink:href="#linearGradient3771-40"
       id="linearGradient3777-8"
       x1="685"
       y1="155.28683"
       x2="565"
       y2="120.28683"
       gradientUnits="userSpaceOnUse" />
    <linearGradient
       inkscape:collect="always"
       xlink:href="#linearGradient3786-7"
       id="linearGradient3792"
       x1="73.013138"
       y1="695.60498"
       x2="673.02954"
       y2="695.60498"
       gradientUnits="userSpaceOnUse" />
    <linearGradient
       inkscape:collect="always"
       xlink:href="#linearGradient3786-7"
       id="linearGradient3794"
       gradientUnits="userSpaceOnUse"
       x1="73.013138"
       y1="695.60498"
       x2="673.02954"
       y2="695.60498" />
    <linearGradient
       inkscape:collect="always"
       xlink:href="#linearGradient3786-7"
       id="linearGradient3796"
       gradientUnits="userSpaceOnUse"
       x1="73.013138"
       y1="695.60498"
       x2="673.02954"
       y2="695.60498" />
    <linearGradient
       inkscape:collect="always"
       xlink:href="#linearGradient3786-7"
       id="linearGradient3798"
       gradientUnits="userSpaceOnUse"
       x1="73.013138"
       y1="695.60498"
       x2="673.02954"
       y2="695.60498" />
    <linearGradient
       inkscape:collect="always"
       xlink:href="#linearGradient3786-7"
       id="linearGradient3800"
       gradientUnits="userSpaceOnUse"
       x1="73.013138"
       y1="695.60498"
       x2="673.02954"
       y2="695.60498" />
    <linearGradient
       inkscape:collect="always"
       xlink:href="#linearGradient3786-7"
       id="linearGradient3802"
       gradientUnits="userSpaceOnUse"
       x1="73.013138"
       y1="695.60498"
       x2="673.02954"
       y2="695.60498" />
    <linearGradient
       inkscape:collect="always"
       xlink:href="#linearGradient3786-7"
       id="linearGradient3804-8"
       gradientUnits="userSpaceOnUse"
       x1="73.013138"
       y1="695.60498"
       x2="673.02954"
       y2="695.60498" />
    <linearGradient
       inkscape:collect="always"
       xlink:href="#linearGradient3786-7"
       id="linearGradient3806-2"
       gradientUnits="userSpaceOnUse"
       x1="73.013138"
       y1="695.60498"
       x2="673.02954"
       y2="695.60498" />
    <linearGradient
       inkscape:collect="always"
       xlink:href="#linearGradient3786-7"
       id="linearGradient3808-4"
       gradientUnits="userSpaceOnUse"
       x1="73.013138"
       y1="695.60498"
       x2="673.02954"
       y2="695.60498"
       gradientTransform="translate(591.94939,-87.883271)" />
    <linearGradient
       inkscape:collect="always"
       xlink:href="#linearGradient3786-7"
       id="linearGradient3812"
       gradientUnits="userSpaceOnUse"
       x1="73.013138"
       y1="695.60498"
       x2="673.02954"
       y2="695.60498" />
    <linearGradient
       gradientUnits="userSpaceOnUse"
       y2="120.28683"
       x2="565"
       y1="155.28683"
       x1="685"
       id="linearGradient3777-4"
       xlink:href="#linearGradient3771-4-5"
       inkscape:collect="always" />
    <linearGradient
       id="linearGradient3771-4-5">
      <stop
         id="stop3773-0"
         offset="0"
         style="stop-color:#777777;stop-opacity:1;" />
      <stop
         id="stop3775-9"
         offset="1"
         style="stop-color:#787878;stop-opacity:0;" />
    </linearGradient>
    <linearGradient
       gradientUnits="userSpaceOnUse"
       y2="120.28683"
       x2="565"
       y1="155.28683"
       x1="685"
       id="linearGradient3777-1"
       xlink:href="#linearGradient3771-1-5"
       inkscape:collect="always" />
    <linearGradient
       id="linearGradient3771-1-5">
      <stop
         id="stop3773-7"
         offset="0"
         style="stop-color:#777777;stop-opacity:1;" />
      <stop
         id="stop3775-1"
         offset="1"
         style="stop-color:#787878;stop-opacity:0;" />
    </linearGradient>
    <linearGradient
       gradientUnits="userSpaceOnUse"
       y2="47.613014"
       x2="66.98632"
       y1="47.613014"
       x1="-0.60000002"
       id="linearGradient3858"
       xlink:href="#linearGradient3776-1"
       inkscape:collect="always" />
    <linearGradient
       inkscape:collect="always"
       id="linearGradient3776-1">
      <stop
         style="stop-color:#555555;stop-opacity:1;"
         offset="0"
         id="stop3778-6" />
      <stop
         style="stop-color:#555555;stop-opacity:0;"
         offset="1"
         id="stop3780-85" />
    </linearGradient>
    <linearGradient
       inkscape:collect="always"
       id="linearGradient2989-3">
      <stop
         style="stop-color:#777777;stop-opacity:1;"
         offset="0"
         id="stop2991-2" />
      <stop
         style="stop-color:#777777;stop-opacity:0;"
         offset="1"
         id="stop2993-2" />
    </linearGradient>
    <linearGradient
       id="linearGradient3771-6">
      <stop
         style="stop-color:#777777;stop-opacity:1;"
         offset="0"
         id="stop3773-1" />
      <stop
         style="stop-color:#787878;stop-opacity:0;"
         offset="1"
         id="stop3775-42" />
    </linearGradient>
    <linearGradient
       inkscape:collect="always"
       xlink:href="#linearGradient3771-6"
       id="linearGradient3777-7"
       x1="560"
       y1="85.286827"
       x2="695"
       y2="180.28682"
       gradientUnits="userSpaceOnUse" />
    <linearGradient
       inkscape:collect="always"
       xlink:href="#linearGradient2989-3"
       id="linearGradient2995-2"
       x1="711.87061"
       y1="194.48755"
       x2="745.1825"
       y2="219.61742"
       gradientUnits="userSpaceOnUse" />
    <linearGradient
       inkscape:collect="always"
       xlink:href="#linearGradient3776-1"
       id="linearGradient3782-5"
       x1="622.52954"
       y1="739.60504"
       x2="738.52954"
       y2="739.60504"
       gradientUnits="userSpaceOnUse"
       gradientTransform="translate(10,-5.0000018)" />
    <linearGradient
       inkscape:collect="always"
       xlink:href="#linearGradient3776-1"
       id="linearGradient3804-1"
       gradientUnits="userSpaceOnUse"
       gradientTransform="translate(0,-35.000006)"
       x1="622.52954"
       y1="739.60504"
       x2="738.52954"
       y2="739.60504" />
    <linearGradient
       inkscape:collect="always"
       xlink:href="#linearGradient3771-6"
       id="linearGradient3772"
       x1="683.02954"
       y1="679.60504"
       x2="743.02954"
       y2="769.60504"
       gradientUnits="userSpaceOnUse"
       gradientTransform="matrix(-1.0775862,0,0,1.0775862,1483.8166,-59.819356)" />
    <linearGradient
       y2="739.60504"
       x2="738.52954"
       y1="739.60504"
       x1="622.52954"
       gradientTransform="translate(0,-35.000006)"
       gradientUnits="userSpaceOnUse"
       id="linearGradient3808-1"
       xlink:href="#linearGradient3776-6-7"
       inkscape:collect="always" />
    <linearGradient
       y2="739.60504"
       x2="738.52954"
       y1="739.60504"
       x1="622.52954"
       gradientTransform="translate(0,-35.000006)"
       gradientUnits="userSpaceOnUse"
       id="linearGradient3804-4-7"
       xlink:href="#linearGradient3776-6-7"
       inkscape:collect="always" />
    <linearGradient
       gradientTransform="translate(10,-5.0000018)"
       gradientUnits="userSpaceOnUse"
       y2="739.60504"
       x2="738.52954"
       y1="739.60504"
       x1="622.52954"
       id="linearGradient3782-9-1"
       xlink:href="#linearGradient3776-6-7"
       inkscape:collect="always" />
    <linearGradient
       gradientUnits="userSpaceOnUse"
       y2="219.61742"
       x2="745.1825"
       y1="194.48755"
       x1="711.87061"
       id="linearGradient2995-4-5"
       xlink:href="#linearGradient2989-2-9"
       inkscape:collect="always" />
    <linearGradient
       gradientUnits="userSpaceOnUse"
       y2="180.28682"
       x2="695"
       y1="85.286827"
       x1="560"
       id="linearGradient3777-0-5"
       xlink:href="#linearGradient3771-1-8"
       inkscape:collect="always" />
    <linearGradient
       id="linearGradient3771-1-8">
      <stop
         id="stop3773-2-2"
         offset="0"
         style="stop-color:#777777;stop-opacity:1;" />
      <stop
         id="stop3775-6-4"
         offset="1"
         style="stop-color:#787878;stop-opacity:0;" />
    </linearGradient>
    <linearGradient
       id="linearGradient2989-2-9"
       inkscape:collect="always">
      <stop
         id="stop2991-7-4"
         offset="0"
         style="stop-color:#777777;stop-opacity:1;" />
      <stop
         id="stop2993-7-8"
         offset="1"
         style="stop-color:#777777;stop-opacity:0;" />
    </linearGradient>
    <linearGradient
       id="linearGradient3776-6-7"
       inkscape:collect="always">
      <stop
         id="stop3778-8-4"
         offset="0"
         style="stop-color:#555555;stop-opacity:1;" />
      <stop
         id="stop3780-8-0"
         offset="1"
         style="stop-color:#555555;stop-opacity:0;" />
    </linearGradient>
    <linearGradient
       y2="869.59613"
       x2="868.02332"
       y1="689.59613"
       x1="688.02332"
       gradientTransform="translate(-64.99378,-29.991102)"
       gradientUnits="userSpaceOnUse"
       id="linearGradient3806"
       xlink:href="#linearGradient3763"
       inkscape:collect="always" />
    <linearGradient
       inkscape:collect="always"
       xlink:href="#linearGradient3763-7"
       id="linearGradient3786"
       gradientUnits="userSpaceOnUse"
       gradientTransform="translate(-1527.6346,-76.57551)"
       x1="687.52954"
       y1="779.60504"
       x2="843.52954"
       y2="779.60504" />
    <linearGradient
       id="linearGradient3763-7"
       inkscape:collect="always">
      <stop
         id="stop3765-4"
         offset="0"
         style="stop-color:#555555;stop-opacity:1;" />
      <stop
         id="stop3767-0"
         offset="1"
         style="stop-color:#555555;stop-opacity:0;" />
    </linearGradient>
    <linearGradient
       gradientTransform="translate(54.999989,-35.000013)"
       gradientUnits="userSpaceOnUse"
       y2="779.60504"
       x2="843.52954"
       y1="779.60504"
       x1="687.52954"
       id="linearGradient3769-1"
       xlink:href="#linearGradient3763-7"
       inkscape:collect="always" />
    <linearGradient
       gradientTransform="translate(-815.67956,-696.31488)"
       gradientUnits="userSpaceOnUse"
       y2="779.60504"
       x2="843.52954"
       y1="779.60504"
       x1="687.52954"
       id="linearGradient3769"
       xlink:href="#linearGradient3763"
       inkscape:collect="always" />
    <linearGradient
       gradientUnits="userSpaceOnUse"
       y2="219.61742"
       x2="745.1825"
       y1="194.48755"
       x1="711.87061"
       id="linearGradient2995-45"
       xlink:href="#linearGradient2989-4"
       inkscape:collect="always" />
    <linearGradient
       gradientUnits="userSpaceOnUse"
       y2="180.28682"
       x2="695"
       y1="85.286827"
       x1="560"
       id="linearGradient3777-2"
       xlink:href="#linearGradient3771-4"
       inkscape:collect="always" />
    <linearGradient
       id="linearGradient3771-4">
      <stop
         id="stop3773-8"
         offset="0"
         style="stop-color:#777777;stop-opacity:1;" />
      <stop
         id="stop3775-8"
         offset="1"
         style="stop-color:#787878;stop-opacity:0;" />
    </linearGradient>
    <linearGradient
       id="linearGradient2989-4"
       inkscape:collect="always">
      <stop
         id="stop2991-0"
         offset="0"
         style="stop-color:#777777;stop-opacity:1;" />
      <stop
         id="stop2993-9"
         offset="1"
         style="stop-color:#777777;stop-opacity:0;" />
    </linearGradient>
    <linearGradient
       id="linearGradient3763"
       inkscape:collect="always">
      <stop
         id="stop3765"
         offset="0"
         style="stop-color:#555555;stop-opacity:1;" />
      <stop
         id="stop3767"
         offset="1"
         style="stop-color:#555555;stop-opacity:0;" />
    </linearGradient>
    <linearGradient
       inkscape:collect="always"
       xlink:href="#linearGradient3868"
       id="linearGradient4024"
       x1="618.02954"
       y1="714.60498"
       x2="683.02954"
       y2="764.60498"
       gradientUnits="userSpaceOnUse" />
    <linearGradient
       inkscape:collect="always"
       xlink:href="#linearGradient3868-7"
       id="linearGradient4024-1"
       x1="618.02954"
       y1="714.60498"
       x2="683.02954"
       y2="764.60498"
       gradientUnits="userSpaceOnUse" />
    <linearGradient
       id="linearGradient3868-7">
      <stop
         style="stop-color:#10AED4;stop-opacity:1;"
         offset="0"
         id="stop3870-4" />
      <stop
         style="stop-color:#96DCEB;stop-opacity:1;"
         offset="1"
         id="stop3872-0" />
    </linearGradient>
    <linearGradient
       gradientTransform="translate(-85.10862,-1.4000258)"
       y2="764.60498"
       x2="683.02954"
       y1="714.60498"
       x1="618.02954"
       gradientUnits="userSpaceOnUse"
       id="linearGradient3921"
       xlink:href="#linearGradient3868-7"
       inkscape:collect="always" />
    <linearGradient
       inkscape:collect="always"
       xlink:href="#linearGradient3868"
       id="linearGradient3953"
       x1="5.1568999"
       y1="3.5896392"
       x2="85.156898"
       y2="103.58964"
       gradientUnits="userSpaceOnUse" />
    <filter
       inkscape:label="Glow"
       inkscape:menu="Shadows and Glows"
       inkscape:menu-tooltip="Glow of object's own color at the edges"
       color-interpolation-filters="sRGB"
       id="filter3955">
      <feGaussianBlur
         stdDeviation="5"
         result="result91"
         id="feGaussianBlur3957" />
      <feComposite
         in="SourceGraphic"
         operator="over"
         in2="result91"
         id="feComposite3959"
         result="result93" />
      <feGaussianBlur
         id="feGaussianBlur3148"
         result="result91"
         stdDeviation="5"
         in="SourceGraphic" />
      <feComposite
         id="feComposite3150"
         in2="result91"
         in="result93" />
    </filter>
    <linearGradient
       inkscape:collect="always"
       xlink:href="#linearGradient3868"
       id="linearGradient3962"
       x1="706.1839"
       y1="709.58136"
       x2="839.77655"
       y2="810.34412"
       gradientUnits="userSpaceOnUse" />
  </defs>
  <sodipodi:namedview
     id="base"
     pagecolor="#ffffff"
     bordercolor="#666666"
     borderopacity="1.0"
     inkscape:pageopacity="0.0"
     inkscape:pageshadow="2"
     inkscape:zoom="5.6"
     inkscape:cx="45.575879"
     inkscape:cy="56.17339"
     inkscape:document-units="px"
     inkscape:current-layer="layer2"
     showgrid="true"
     inkscape:window-width="1920"
     inkscape:window-height="1018"
     inkscape:window-x="-8"
     inkscape:window-y="-8"
     inkscape:window-maximized="1"
     fit-margin-top="0"
     fit-margin-left="0"
     fit-margin-right="0"
     fit-margin-bottom="0"
     showguides="true"
     inkscape:guide-bbox="true"
     inkscape:snap-grids="false">
    <inkscape:grid
       type="xygrid"
       id="grid3767"
       empspacing="5"
       visible="true"
       enabled="true"
       snapvisiblegridlinesonly="true"
       originx="-508.50881px"
       originy="-102.97308px" />
  </sodipodi:namedview>
  <metadata
     id="metadata7">
    <rdf:RDF>
      <cc:Work
         rdf:about="">
        <dc:format>image/svg+xml</dc:format>
        <dc:type
           rdf:resource="http://purl.org/dc/dcmitype/StillImage" />
        <dc:title />
      </cc:Work>
    </rdf:RDF>
  </metadata>
  <g
     inkscape:groupmode="layer"
     id="layer2"
     inkscape:label="Nuage"
     transform="translate(-691.53834,-698.03192)">
    <path
       sodipodi:nodetypes="ccsscccscccsscssccccczcsscccscscccsscccccsscccssscscs"
       inkscape:connector-curvature="0"
       id="path3171"
       d="m 814.6435,802.74813 0,-7.0838 -10.43184,-0.18403 c -10.35654,-0.1827 -10.46063,-0.19767 -14.42097,-2.07355 -3.79841,-1.79917 -13.32067,-11.84096 -13.32067,-11.84096 3.37468,-3.55647 5.82827,-7.44674 10.02864,-11.83486 2.62771,3.3572 5.71203,7.54736 9.56387,10.21319 1.70547,0.73886 3.86858,0.95328 10.27684,0.95328 l 8.26795,0 0.16502,-6.9907 0.16501,-6.9907 6.75866,6.22442 c 3.71726,3.42343 8.94501,8.23909 11.61724,10.70146 l 4.85858,4.47705 -9.2664,8.51154 c -5.09653,4.68135 -10.3904,9.52177 -11.76417,10.7565 l -2.49776,2.24495 z m -108.13848,-17.6982 0,-7.67878 20.37126,0 c 0,0 14.5522,0.45143 20.37126,0 5.81906,-0.45143 13.83852,-14.59568 17.69044,-20.95637 11.51732,-19.15338 18.25192,-27.2703 25.40738,-30.62238 3.27394,-1.53373 3.92122,-1.61752 13.84851,-1.79276 l 10.41404,-0.18382 0.16473,-6.99195 0.16471,-6.99195 11.34409,10.40818 c 6.23925,5.72449 11.30492,10.67264 11.25705,10.99588 -0.0478,0.32324 -5.15271,5.24661 -11.34409,10.94082 l -11.25705,10.35311 -0.16501,-6.97378 -0.16502,-6.97379 -7.93486,0 c -5.37274,0 -8.54551,0.25817 -9.82604,0.79952 -3.8914,1.64514 -9.44214,8.74532 -17.75323,22.70885 -7.76029,11.77961 -16.85845,27.23356 -28.58121,29.59913 -4.39312,1.01455 -22.1148,0.85338 -22.1148,0.85338 l -21.89216,0.1855 z m 47.40247,-37.98121 c -4.13646,-4.26853 -7.27413,-4.96012 -27.10309,-4.96012 l -20.29938,0 0,-7.64022 0,-7.64022 19.90189,0 c 10.94604,0 18.5065,-0.25532 23.06759,0.587 4.1775,0.77148 10.90738,4.12439 13.33858,6.63888 l 1.94496,2.0116 -4.20771,6.84159 c -2.31424,3.76287 -4.24735,6.83291 -4.2958,6.82232 -0.0484,-0.0106 -1.0167,-1.28803 -2.34704,-2.66083 z"
       style="fill:url(#linearGradient3962);fill-opacity:1;stroke:#10AED4;stroke-width:3;stroke-linecap:round;stroke-linejoin:round;stroke-miterlimit:4;stroke-opacity:1;stroke-dasharray:none;filter:url(#filter3955)" />
  </g>
</svg>
